[{"Teatro":"Cine Colombia Mercurio","Pelicula":[{"Id":2582576,"Funciones":[{"Hora":"10:25"},{"Hora":"17:39"},{"Hora":"15:22"},{"Hora":"10:49"},{"Hora":"13:08"}]},{"Id":3874544,"Funciones":[{"Hora":"17:52"},{"Hora":"10:22"},{"Hora":"16:06"},{"Hora":"12:12"},{"Hora":"15:21"},{"Hora":"17:48"},{"Hora":"8:40"}]},{"Id":5460276,"Funciones":[{"Hora":"14:10"},{"Hora":"12:11"},{"Hora":"7:07"},{"Hora":"12:37"},{"Hora":"16:30"},{"Hora":"17:55"},{"Hora":"11:39"}]},{"Id":3401882,"Funciones":[{"Hora":"11:12"},{"Hora":"12:51"},{"Hora":"9:06"},{"Hora":"18:17"},{"Hora":"15:52"},{"Hora":"16:52"},{"Hora":"15:27"},{"Hora":"16:45"},{"Hora":"20:32"}]},{"Id":4425200,"Funciones":[{"Hora":"16:30"},{"Hora":"20:59"},{"Hora":"19:00"},{"Hora":"16:25"},{"Hora":"18:09"},{"Hora":"13:52"}]}]},
{"Teatro":"Cine Colombia Andino","Pelicula":[{"Id":3405236,"Funciones":[{"Hora":"17:59"},{"Hora":"17:45"},{"Hora":"17:28"},{"Hora":"10:47"},{"Hora":"9:18"},{"Hora":"11:46"},{"Hora":"13:14"}]},{"Id":3405236,"Funciones":[{"Hora":"14:42"},{"Hora":"16:44"},{"Hora":"9:26"},{"Hora":"10:28"},{"Hora":"18:45"}]},{"Id":2072233,"Funciones":[{"Hora":"19:33"},{"Hora":"8:49"},{"Hora":"13:45"},{"Hora":"9:29"},{"Hora":"16:08"},{"Hora":"7:25"},{"Hora":"14:22"}]},{"Id":4217392,"Funciones":[{"Hora":"19:36"},{"Hora":"13:05"},{"Hora":"19:57"},{"Hora":"20:54"},{"Hora":"8:51"},{"Hora":"12:22"}]},{"Id":3896198,"Funciones":[{"Hora":"11:30"},{"Hora":"20:34"},{"Hora":"7:03"},{"Hora":"17:58"},{"Hora":"15:08"},{"Hora":"13:58"},{"Hora":"10:34"},{"Hora":"13:04"},{"Hora":"19:07"},{"Hora":"16:15"}]},{"Id":3896198,"Funciones":[{"Hora":"12:30"},{"Hora":"16:39"},{"Hora":"20:47"},{"Hora":"8:52"},{"Hora":"15:41"},{"Hora":"15:56"},{"Hora":"18:06"},{"Hora":"20:40"},{"Hora":"15:05"},{"Hora":"10:42"}]},{"Id":5052448,"Funciones":[{"Hora":"19:22"},{"Hora":"10:25"},{"Hora":"10:50"},{"Hora":"14:57"},{"Hora":"19:00"}]},{"Id":2763304,"Funciones":[{"Hora":"20:18"},{"Hora":"12:06"},{"Hora":"15:51"},{"Hora":"10:58"},{"Hora":"19:28"},{"Hora":"11:14"},{"Hora":"16:49"},{"Hora":"16:33"}]},{"Id":2568862,"Funciones":[{"Hora":"18:35"},{"Hora":"9:24"},{"Hora":"12:09"},{"Hora":"10:09"},{"Hora":"8:10"}]},{"Id":3401882,"Funciones":[{"Hora":"11:17"},{"Hora":"10:13"},{"Hora":"7:56"},{"Hora":"19:39"},{"Hora":"12:58"},{"Hora":"15:49"}]},{"Id":5460276,"Funciones":[{"Hora":"20:02"},{"Hora":"12:25"},{"Hora":"7:11"},{"Hora":"11:29"},{"Hora":"9:31"},{"Hora":"12:56"}]},{"Id":4849438,"Funciones":[{"Hora":"16:24"},{"Hora":"12:31"},{"Hora":"8:50"},{"Hora":"20:40"},{"Hora":"7:17"},{"Hora":"10:43"}]}]},
{"Teatro":"Cine Colombia Avenida Chile","Pelicula":[{"Id":5982852,"Funciones":[{"Hora":"17:21"},{"Hora":"14:20"},{"Hora":"18:55"},{"Hora":"9:07"},{"Hora":"13:35"}]},{"Id":4217392,"Funciones":[{"Hora":"14:58"},{"Hora":"15:48"},{"Hora":"12:16"},{"Hora":"16:26"},{"Hora":"15:59"},{"Hora":"9:45"}]},{"Id":4425200,"Funciones":[{"Hora":"9:37"},{"Hora":"10:16"},{"Hora":"19:14"},{"Hora":"17:17"},{"Hora":"9:19"}]},{"Id":4465564,"Funciones":[{"Hora":"15:26"},{"Hora":"9:39"},{"Hora":"12:48"},{"Hora":"12:44"},{"Hora":"12:39"},{"Hora":"9:32"}]},{"Id":2568862,"Funciones":[{"Hora":"10:06"},{"Hora":"7:15"},{"Hora":"17:40"},{"Hora":"7:14"},{"Hora":"16:55"},{"Hora":"20:56"},{"Hora":"12:02"},{"Hora":"17:34"}]}]},
{"Teatro":"Cine Colombia C.C. Plaza Central","Pelicula":[{"Id":3922818,"Funciones":[{"Hora":"12:30"},{"Hora":"17:09"},{"Hora":"17:05"},{"Hora":"9:18"},{"Hora":"16:58"},{"Hora":"20:27"},{"Hora":"15:26"},{"Hora":"14:51"}]},{"Id":4425200,"Funciones":[{"Hora":"16:30"},{"Hora":"13:45"},{"Hora":"13:25"},{"Hora":"16:27"},{"Hora":"8:05"},{"Hora":"11:01"},{"Hora":"15:37"}]},{"Id":4217392,"Funciones":[{"Hora":"9:03"},{"Hora":"13:32"},{"Hora":"11:51"},{"Hora":"20:48"},{"Hora":"17:28"},{"Hora":"12:05"}]},{"Id":3731562,"Funciones":[{"Hora":"10:34"},{"Hora":"9:56"},{"Hora":"11:22"},{"Hora":"13:40"},{"Hora":"16:09"},{"Hora":"13:02"},{"Hora":"11:33"}]},{"Id":4581576,"Funciones":[{"Hora":"10:39"},{"Hora":"18:40"},{"Hora":"7:03"},{"Hora":"11:43"},{"Hora":"7:31"}]},{"Id":2582576,"Funciones":[{"Hora":"15:26"},{"Hora":"16:19"},{"Hora":"15:39"},{"Hora":"17:57"},{"Hora":"12:37"},{"Hora":"11:39"}]},{"Id":5460276,"Funciones":[{"Hora":"12:28"},{"Hora":"17:18"},{"Hora":"15:21"},{"Hora":"11:48"},{"Hora":"13:03"},{"Hora":"7:09"},{"Hora":"15:27"},{"Hora":"15:00"},{"Hora":"8:47"},{"Hora":"7:02"}]},{"Id":4030600,"Funciones":[{"Hora":"19:42"},{"Hora":"12:38"},{"Hora":"14:16"},{"Hora":"18:18"},{"Hora":"15:39"}]},{"Id":4465564,"Funciones":[{"Hora":"15:11"},{"Hora":"19:45"},{"Hora":"13:14"},{"Hora":"19:07"},{"Hora":"9:38"},{"Hora":"10:02"}]},{"Id":4581576,"Funciones":[{"Hora":"12:05"},{"Hora":"11:42"},{"Hora":"14:42"},{"Hora":"20:03"},{"Hora":"8:23"}]},{"Id":5442430,"Funciones":[{"Hora":"16:58"},{"Hora":"14:55"},{"Hora":"8:56"},{"Hora":"9:20"},{"Hora":"13:52"},{"Hora":"17:14"},{"Hora":"14:22"},{"Hora":"13:18"}]}]},
{"Teatro":"Cine Colombia Cedritos","Pelicula":[{"Id":3896198,"Funciones":[{"Hora":"16:02"},{"Hora":"18:15"},{"Hora":"16:31"},{"Hora":"13:10"},{"Hora":"14:39"}]},{"Id":5155780,"Funciones":[{"Hora":"8:53"},{"Hora":"11:36"},{"Hora":"8:27"},{"Hora":"13:37"},{"Hora":"16:22"}]},{"Id":5607714,"Funciones":[{"Hora":"8:50"},{"Hora":"20:13"},{"Hora":"15:54"},{"Hora":"18:11"},{"Hora":"17:32"},{"Hora":"18:38"},{"Hora":"7:44"}]},{"Id":2568862,"Funciones":[{"Hora":"19:16"},{"Hora":"13:18"},{"Hora":"15:07"},{"Hora":"19:33"},{"Hora":"14:41"},{"Hora":"11:12"},{"Hora":"15:15"},{"Hora":"20:14"}]},{"Id":3405236,"Funciones":[{"Hora":"12:10"},{"Hora":"15:18"},{"Hora":"7:24"},{"Hora":"10:55"},{"Hora":"16:17"},{"Hora":"12:57"},{"Hora":"16:11"},{"Hora":"9:24"}]},{"Id":4481414,"Funciones":[{"Hora":"9:12"},{"Hora":"20:42"},{"Hora":"10:24"},{"Hora":"14:34"},{"Hora":"19:04"},{"Hora":"12:48"},{"Hora":"8:03"},{"Hora":"20:34"},{"Hora":"18:51"},{"Hora":"7:45"}]},{"Id":2763304,"Funciones":[{"Hora":"11:33"},{"Hora":"9:13"},{"Hora":"8:13"},{"Hora":"16:47"},{"Hora":"19:54"},{"Hora":"18:48"},{"Hora":"9:56"},{"Hora":"15:15"},{"Hora":"14:27"}]},{"Id":3874544,"Funciones":[{"Hora":"15:48"},{"Hora":"14:57"},{"Hora":"13:56"},{"Hora":"7:33"},{"Hora":"19:20"},{"Hora":"19:37"},{"Hora":"17:45"},{"Hora":"20:01"},{"Hora":"20:12"}]},{"Id":4425200,"Funciones":[{"Hora":"9:26"},{"Hora":"16:03"},{"Hora":"8:32"},{"Hora":"16:16"},{"Hora":"19:18"}]},{"Id":3171832,"Funciones":[{"Hora":"15:22"},{"Hora":"17:51"},{"Hora":"17:45"},{"Hora":"9:52"},{"Hora":"17:54"},{"Hora":"16:01"},{"Hora":"12:25"},{"Hora":"13:07"},{"Hora":"14:47"}]},{"Id":5052448,"Funciones":[{"Hora":"15:09"},{"Hora":"14:34"},{"Hora":"10:25"},{"Hora":"16:42"},{"Hora":"15:55"},{"Hora":"12:47"},{"Hora":"14:45"},{"Hora":"9:43"},{"Hora":"9:01"}]},{"Id":4581576,"Funciones":[{"Hora":"12:54"},{"Hora":"17:23"},{"Hora":"15:59"},{"Hora":"20:34"},{"Hora":"8:43"},{"Hora":"13:20"},{"Hora":"13:09"},{"Hora":"15:58"},{"Hora":"17:58"},{"Hora":"7:26"}]}]},
{"Teatro":"Cine Colombia Centro Chía","Pelicula":[{"Id":4116284,"Funciones":[{"Hora":"17:05"},{"Hora":"12:34"},{"Hora":"20:18"},{"Hora":"13:19"},{"Hora":"20:46"},{"Hora":"18:41"},{"Hora":"15:47"},{"Hora":"8:59"}]},{"Id":3462710,"Funciones":[{"Hora":"14:35"},{"Hora":"12:42"},{"Hora":"18:17"},{"Hora":"12:44"},{"Hora":"14:21"},{"Hora":"13:57"},{"Hora":"19:00"},{"Hora":"8:10"}]},{"Id":4465564,"Funciones":[{"Hora":"14:30"},{"Hora":"8:20"},{"Hora":"11:38"},{"Hora":"17:39"},{"Hora":"10:40"},{"Hora":"12:42"},{"Hora":"20:24"},{"Hora":"8:59"},{"Hora":"18:12"},{"Hora":"14:09"}]},{"Id":4481414,"Funciones":[{"Hora":"15:47"},{"Hora":"19:27"},{"Hora":"7:24"},{"Hora":"14:12"},{"Hora":"14:35"},{"Hora":"15:33"},{"Hora":"9:16"}]},{"Id":3922818,"Funciones":[{"Hora":"10:50"},{"Hora":"11:02"},{"Hora":"14:58"},{"Hora":"17:21"},{"Hora":"16:27"},{"Hora":"20:13"},{"Hora":"12:22"}]},{"Id":4581576,"Funciones":[{"Hora":"20:04"},{"Hora":"8:50"},{"Hora":"7:27"},{"Hora":"20:02"},{"Hora":"10:56"},{"Hora":"16:32"},{"Hora":"7:19"},{"Hora":"19:38"}]},{"Id":4217392,"Funciones":[{"Hora":"17:39"},{"Hora":"14:01"},{"Hora":"20:29"},{"Hora":"11:44"},{"Hora":"19:58"},{"Hora":"7:49"},{"Hora":"17:10"},{"Hora":"12:41"},{"Hora":"14:44"}]},{"Id":4481414,"Funciones":[{"Hora":"7:31"},{"Hora":"18:48"},{"Hora":"7:23"},{"Hora":"17:24"},{"Hora":"19:16"},{"Hora":"12:42"},{"Hora":"20:35"},{"Hora":"15:46"}]},{"Id":1730768,"Funciones":[{"Hora":"13:01"},{"Hora":"19:16"},{"Hora":"16:16"},{"Hora":"17:39"},{"Hora":"10:32"},{"Hora":"18:17"},{"Hora":"15:25"},{"Hora":"10:39"},{"Hora":"12:25"},{"Hora":"12:33"}]},{"Id":5442430,"Funciones":[{"Hora":"18:20"},{"Hora":"19:18"},{"Hora":"8:02"},{"Hora":"7:00"},{"Hora":"13:54"},{"Hora":"13:57"},{"Hora":"8:22"}]}]},
{"Teatro":"Cine Colombia Centro Mayor","Pelicula":[{"Id":498381,"Funciones":[{"Hora":"9:44"},{"Hora":"17:07"},{"Hora":"15:15"},{"Hora":"16:52"},{"Hora":"11:38"},{"Hora":"20:37"}]},{"Id":1691916,"Funciones":[{"Hora":"18:39"},{"Hora":"20:47"},{"Hora":"20:22"},{"Hora":"18:19"},{"Hora":"7:27"}]},{"Id":4217392,"Funciones":[{"Hora":"14:28"},{"Hora":"9:48"},{"Hora":"13:58"},{"Hora":"13:32"},{"Hora":"18:17"},{"Hora":"16:02"},{"Hora":"20:36"},{"Hora":"11:43"}]},{"Id":3731562,"Funciones":[{"Hora":"18:54"},{"Hora":"16:16"},{"Hora":"20:03"},{"Hora":"19:54"},{"Hora":"18:55"},{"Hora":"14:20"},{"Hora":"15:31"},{"Hora":"14:04"},{"Hora":"18:51"}]},{"Id":4287320,"Funciones":[{"Hora":"10:38"},{"Hora":"20:30"},{"Hora":"18:20"},{"Hora":"20:29"},{"Hora":"7:47"},{"Hora":"10:07"},{"Hora":"7:23"},{"Hora":"16:44"}]},{"Id":2763304,"Funciones":[{"Hora":"19:22"},{"Hora":"13:06"},{"Hora":"8:09"},{"Hora":"15:28"},{"Hora":"18:33"}]}]},
{"Teatro":"Cine Colombia Embajador","Pelicula":[{"Id":4465564,"Funciones":[{"Hora":"16:42"},{"Hora":"15:21"},{"Hora":"9:07"},{"Hora":"14:31"},{"Hora":"15:10"},{"Hora":"13:49"},{"Hora":"14:20"},{"Hora":"12:47"},{"Hora":"11:24"},{"Hora":"15:54"}]},{"Id":3171832,"Funciones":[{"Hora":"14:05"},{"Hora":"17:26"},{"Hora":"14:18"},{"Hora":"17:12"},{"Hora":"10:06"},{"Hora":"17:50"},{"Hora":"9:32"}]},{"Id":4217392,"Funciones":[{"Hora":"10:33"},{"Hora":"12:01"},{"Hora":"10:22"},{"Hora":"20:55"},{"Hora":"14:51"},{"Hora":"19:11"}]},{"Id":4481414,"Funciones":[{"Hora":"12:40"},{"Hora":"14:36"},{"Hora":"14:59"},{"Hora":"19:37"},{"Hora":"19:37"},{"Hora":"9:26"}]},{"Id":4481414,"Funciones":[{"Hora":"16:01"},{"Hora":"10:29"},{"Hora":"19:35"},{"Hora":"17:21"},{"Hora":"15:03"},{"Hora":"11:11"},{"Hora":"7:20"},{"Hora":"11:12"},{"Hora":"13:52"},{"Hora":"10:24"}]},{"Id":1293847,"Funciones":[{"Hora":"14:58"},{"Hora":"11:51"},{"Hora":"13:56"},{"Hora":"15:44"},{"Hora":"18:05"},{"Hora":"20:19"}]},{"Id":4425200,"Funciones":[{"Hora":"20:46"},{"Hora":"15:51"},{"Hora":"18:25"},{"Hora":"16:05"},{"Hora":"17:31"},{"Hora":"20:29"},{"Hora":"13:47"},{"Hora":"10:49"},{"Hora":"9:08"}]},{"Id":3462710,"Funciones":[{"Hora":"8:09"},{"Hora":"19:29"},{"Hora":"7:49"},{"Hora":"11:31"},{"Hora":"14:43"},{"Hora":"12:03"}]},{"Id":3401882,"Funciones":[{"Hora":"17:34"},{"Hora":"10:03"},{"Hora":"11:24"},{"Hora":"9:27"},{"Hora":"15:30"}]},{"Id":4581576,"Funciones":[{"Hora":"13:38"},{"Hora":"7:10"},{"Hora":"11:43"},{"Hora":"13:07"},{"Hora":"10:16"},{"Hora":"17:18"},{"Hora":"13:20"},{"Hora":"15:39"},{"Hora":"14:58"},{"Hora":"9:49"}]},{"Id":5052448,"Funciones":[{"Hora":"19:38"},{"Hora":"14:06"},{"Hora":"12:24"},{"Hora":"10:14"},{"Hora":"7:19"},{"Hora":"12:57"},{"Hora":"20:51"},{"Hora":"18:46"},{"Hora":"18:21"},{"Hora":"13:14"}]},{"Id":4630562,"Funciones":[{"Hora":"11:16"},{"Hora":"14:49"},{"Hora":"14:33"},{"Hora":"7:55"},{"Hora":"9:08"},{"Hora":"8:20"},{"Hora":"20:39"},{"Hora":"10:19"},{"Hora":"14:21"},{"Hora":"14:22"}]}]},
{"Teatro":"Cine Colombia Galerías","Pelicula":[{"Id":3717490,"Funciones":[{"Hora":"20:26"},{"Hora":"12:41"},{"Hora":"14:04"},{"Hora":"18:35"},{"Hora":"17:33"},{"Hora":"13:58"},{"Hora":"18:16"},{"Hora":"20:41"},{"Hora":"12:27"}]},{"Id":5460276,"Funciones":[{"Hora":"14:44"},{"Hora":"19:17"},{"Hora":"19:45"},{"Hora":"17:52"},{"Hora":"17:06"}]},{"Id":3401882,"Funciones":[{"Hora":"8:48"},{"Hora":"11:25"},{"Hora":"9:59"},{"Hora":"9:33"},{"Hora":"17:51"},{"Hora":"13:25"},{"Hora":"7:02"}]},{"Id":3922818,"Funciones":[{"Hora":"9:38"},{"Hora":"15:09"},{"Hora":"19:25"},{"Hora":"17:40"},{"Hora":"15:55"},{"Hora":"11:58"},{"Hora":"16:18"},{"Hora":"9:04"},{"Hora":"12:32"},{"Hora":"7:03"}]},{"Id":4287320,"Funciones":[{"Hora":"12:36"},{"Hora":"8:20"},{"Hora":"19:14"},{"Hora":"16:26"},{"Hora":"19:37"},{"Hora":"16:13"},{"Hora":"12:30"},{"Hora":"14:21"}]},{"Id":4465564,"Funciones":[{"Hora":"7:26"},{"Hora":"12:36"},{"Hora":"16:27"},{"Hora":"13:28"},{"Hora":"19:30"},{"Hora":"9:23"},{"Hora":"14:00"},{"Hora":"15:01"},{"Hora":"9:16"},{"Hora":"12:25"}]},{"Id":5982852,"Funciones":[{"Hora":"10:06"},{"Hora":"12:11"},{"Hora":"11:29"},{"Hora":"17:17"},{"Hora":"8:02"},{"Hora":"13:53"},{"Hora":"10:20"},{"Hora":"18:51"}]}]},
{"Teatro":"Cine Colombia Gran Estación","Pelicula":[{"Id":5710514,"Funciones":[{"Hora":"19:38"},{"Hora":"7:13"},{"Hora":"16:03"},{"Hora":"18:47"},{"Hora":"14:00"},{"Hora":"18:43"},{"Hora":"19:02"}]},{"Id":4287320,"Funciones":[{"Hora":"17:55"},{"Hora":"9:39"},{"Hora":"14:26"},{"Hora":"19:32"},{"Hora":"14:06"},{"Hora":"7:48"},{"Hora":"19:12"},{"Hora":"11:52"},{"Hora":"19:23"},{"Hora":"20:30"}]},{"Id":5442430,"Funciones":[{"Hora":"19:39"},{"Hora":"15:01"},{"Hora":"12:05"},{"Hora":"19:54"},{"Hora":"8:57"},{"Hora":"19:06"},{"Hora":"18:57"},{"Hora":"17:36"}]},{"Id":1293847,"Funciones":[{"Hora":"13:39"},{"Hora":"9:22"},{"Hora":"15:57"},{"Hora":"12:58"},{"Hora":"18:45"},{"Hora":"18:20"}]},{"Id":2582576,"Funciones":[{"Hora":"7:00"},{"Hora":"11:30"},{"Hora":"9:19"},{"Hora":"20:55"},{"Hora":"13:50"}]},{"Id":2072233,"Funciones":[{"Hora":"14:47"},{"Hora":"7:01"},{"Hora":"10:20"},{"Hora":"8:57"},{"Hora":"17:21"},{"Hora":"10:04"},{"Hora":"20:05"},{"Hora":"14:55"},{"Hora":"16:07"},{"Hora":"12:11"}]}]},
{"Teatro":"Cine Colombia Hacienda Santa Bárbara","Pelicula":[{"Id":5442430,"Funciones":[{"Hora":"7:16"},{"Hora":"10:50"},{"Hora":"19:20"},{"Hora":"10:32"},{"Hora":"7:34"},{"Hora":"14:31"},{"Hora":"14:20"},{"Hora":"17:13"},{"Hora":"14:13"}]},{"Id":5607714,"Funciones":[{"Hora":"20:03"},{"Hora":"11:17"},{"Hora":"14:10"},{"Hora":"9:18"},{"Hora":"18:26"},{"Hora":"19:12"}]},{"Id":1293847,"Funciones":[{"Hora":"11:24"},{"Hora":"7:19"},{"Hora":"7:50"},{"Hora":"20:33"},{"Hora":"17:35"},{"Hora":"18:22"}]},{"Id":1219827,"Funciones":[{"Hora":"13:17"},{"Hora":"20:36"},{"Hora":"20:11"},{"Hora":"19:17"},{"Hora":"7:19"},{"Hora":"7:39"},{"Hora":"19:02"},{"Hora":"9:40"},{"Hora":"12:25"}]},{"Id":3315342,"Funciones":[{"Hora":"9:54"},{"Hora":"15:38"},{"Hora":"19:51"},{"Hora":"11:41"},{"Hora":"10:35"},{"Hora":"19:31"},{"Hora":"7:08"},{"Hora":"16:01"},{"Hora":"13:19"},{"Hora":"13:19"}]},{"Id":2771200,"Funciones":[{"Hora":"14:18"},{"Hora":"15:55"},{"Hora":"20:36"},{"Hora":"17:12"},{"Hora":"11:50"},{"Hora":"19:05"},{"Hora":"7:27"}]},{"Id":4630562,"Funciones":[{"Hora":"19:13"},{"Hora":"10:16"},{"Hora":"17:52"},{"Hora":"11:36"},{"Hora":"7:31"},{"Hora":"20:17"},{"Hora":"15:25"},{"Hora":"20:15"},{"Hora":"19:48"}]},{"Id":5710514,"Funciones":[{"Hora":"17:32"},{"Hora":"15:06"},{"Hora":"16:58"},{"Hora":"8:04"},{"Hora":"14:21"},{"Hora":"10:34"},{"Hora":"12:46"},{"Hora":"8:42"}]},{"Id":3171832,"Funciones":[{"Hora":"12:08"},{"Hora":"12:40"},{"Hora":"15:31"},{"Hora":"18:30"},{"Hora":"15:04"}]},{"Id":4465564,"Funciones":[{"Hora":"17:28"},{"Hora":"13:18"},{"Hora":"12:45"},{"Hora":"16:06"},{"Hora":"15:49"},{"Hora":"17:47"},{"Hora":"12:22"},{"Hora":"13:22"},{"Hora":"12:53"},{"Hora":"18:05"}]},{"Id":3922818,"Funciones":[{"Hora":"18:00"},{"Hora":"8:22"},{"Hora":"10:38"},{"Hora":"16:20"},{"Hora":"9:04"},{"Hora":"7:42"}]},{"Id":4287320,"Funciones":[{"Hora":"15:34"},{"Hora":"10:43"},{"Hora":"20:51"},{"Hora":"19:54"},{"Hora":"20:53"},{"Hora":"10:21"},{"Hora":"20:13"},{"Hora":"11:19"},{"Hora":"15:21"},{"Hora":"14:09"}]}]},
{"Teatro":"Cine Colombia Iserra 100","Pelicula":[{"Id":493405,"Funciones":[{"Hora":"11:37"},{"Hora":"16:52"},{"Hora":"19:53"},{"Hora":"8:56"},{"Hora":"20:12"},{"Hora":"8:13"},{"Hora":"20:34"}]},{"Id":2582576,"Funciones":[{"Hora":"10:56"},{"Hora":"14:09"},{"Hora":"14:12"},{"Hora":"9:52"},{"Hora":"10:11"},{"Hora":"18:59"},{"Hora":"9:53"},{"Hora":"13:16"},{"Hora":"7:03"}]},{"Id":1293847,"Funciones":[{"Hora":"17:44"},{"Hora":"10:39"},{"Hora":"9:01"},{"Hora":"19:41"},{"Hora":"8:13"},{"Hora":"20:27"},{"Hora":"14:16"},{"Hora":"8:20"},{"Hora":"9:57"}]},{"Id":3171832,"Funciones":[{"Hora":"13:52"},{"Hora":"11:34"},{"Hora":"19:47"},{"Hora":"12:07"},{"Hora":"14:19"},{"Hora":"9:30"},{"Hora":"20:53"}]},{"Id":2072233,"Funciones":[{"Hora":"20:31"},{"Hora":"9:39"},{"Hora":"18:10"},{"Hora":"12:31"},{"Hora":"15:20"},{"Hora":"7:38"},{"Hora":"10:25"},{"Hora":"11:19"},{"Hora":"18:06"}]},{"Id":4630562,"Funciones":[{"Hora":"14:36"},{"Hora":"12:49"},{"Hora":"17:27"},{"Hora":"15:14"},{"Hora":"16:55"},{"Hora":"8:40"},{"Hora":"8:27"},{"Hora":"20:10"}]},{"Id":2072233,"Funciones":[{"Hora":"12:33"},{"Hora":"11:29"},{"Hora":"12:56"},{"Hora":"14:16"},{"Hora":"19:32"},{"Hora":"14:53"},{"Hora":"16:57"}]},{"Id":5710514,"Funciones":[{"Hora":"13:41"},{"Hora":"10:46"},{"Hora":"10:14"},{"Hora":"14:59"},{"Hora":"18:04"},{"Hora":"17:29"},{"Hora":"17:48"},{"Hora":"17:39"}]},{"Id":5982852,"Funciones":[{"Hora":"7:56"},{"Hora":"18:00"},{"Hora":"11:38"},{"Hora":"14:22"},{"Hora":"9:37"},{"Hora":"13:27"},{"Hora":"10:47"},{"Hora":"18:33"}]}]},
{"Teatro":"Cine Colombia Las Américas","Pelicula":[{"Id":5155780,"Funciones":[{"Hora":"16:13"},{"Hora":"19:29"},{"Hora":"16:06"},{"Hora":"16:24"},{"Hora":"14:59"},{"Hora":"13:52"},{"Hora":"9:57"},{"Hora":"9:36"},{"Hora":"13:14"},{"Hora":"18:20"}]},{"Id":4425200,"Funciones":[{"Hora":"8:22"},{"Hora":"15:13"},{"Hora":"14:21"},{"Hora":"10:29"},{"Hora":"7:53"},{"Hora":"8:04"},{"Hora":"14:43"},{"Hora":"8:14"},{"Hora":"14:32"},{"Hora":"16:20"}]},{"Id":5052448,"Funciones":[{"Hora":"16:25"},{"Hora":"16:56"},{"Hora":"10:59"},{"Hora":"16:29"},{"Hora":"7:16"},{"Hora":"10:58"},{"Hora":"9:24"},{"Hora":"20:06"},{"Hora":"16:11"},{"Hora":"19:13"}]},{"Id":5710514,"Funciones":[{"Hora":"11:59"},{"Hora":"20:41"},{"Hora":"11:44"},{"Hora":"17:22"},{"Hora":"16:27"},{"Hora":"14:02"},{"Hora":"7:05"},{"Hora":"8:23"},{"Hora":"15:20"}]},{"Id":1293847,"Funciones":[{"Hora":"10:33"},{"Hora":"12:56"},{"Hora":"15:02"},{"Hora":"7:21"},{"Hora":"16:46"},{"Hora":"7:20"},{"Hora":"15:43"},{"Hora":"7:32"}]},{"Id":3171832,"Funciones":[{"Hora":"17:49"},{"Hora":"16:35"},{"Hora":"8:59"},{"Hora":"16:52"},{"Hora":"8:30"}]},{"Id":3462710,"Funciones":[{"Hora":"20:28"},{"Hora":"18:28"},{"Hora":"10:00"},{"Hora":"10:08"},{"Hora":"7:48"},{"Hora":"17:18"},{"Hora":"14:36"},{"Hora":"17:25"}]},{"Id":3922818,"Funciones":[{"Hora":"11:20"},{"Hora":"20:29"},{"Hora":"14:38"},{"Hora":"12:11"},{"Hora":"10:03"},{"Hora":"9:52"}]},{"Id":3405236,"Funciones":[{"Hora":"18:30"},{"Hora":"17:54"},{"Hora":"13:22"},{"Hora":"15:36"},{"Hora":"11:23"},{"Hora":"18:49"}]},{"Id":4030600,"Funciones":[{"Hora":"19:43"},{"Hora":"20:03"},{"Hora":"13:40"},{"Hora":"15:26"},{"Hora":"17:16"},{"Hora":"16:03"},{"Hora":"20:47"}]},{"Id":2771200,"Funciones":[{"Hora":"8:23"},{"Hora":"11:16"},{"Hora":"20:50"},{"Hora":"19:36"},{"Hora":"20:46"},{"Hora":"10:36"},{"Hora":"8:16"},{"Hora":"10:45"}]},{"Id":3731562,"Funciones":[{"Hora":"20:05"},{"Hora":"11:55"},{"Hora":"18:55"},{"Hora":"18:13"},{"Hora":"9:11"},{"Hora":"7:41"},{"Hora":"18:57"},{"Hora":"14:52"},{"Hora":"13:40"}]}]},
{"Teatro":"Cine Colombia Metrópolis","Pelicula":[{"Id":3462710,"Funciones":[{"Hora":"15:33"},{"Hora":"12:16"},{"Hora":"10:58"},{"Hora":"13:15"},{"Hora":"11:53"}]},{"Id":3405236,"Funciones":[{"Hora":"12:56"},{"Hora":"16:52"},{"Hora":"7:18"},{"Hora":"19:12"},{"Hora":"12:54"},{"Hora":"17:39"},{"Hora":"9:41"}]},{"Id":4630562,"Funciones":[{"Hora":"16:35"},{"Hora":"14:37"},{"Hora":"9:09"},{"Hora":"12:40"},{"Hora":"11:29"},{"Hora":"18:34"},{"Hora":"17:11"},{"Hora":"7:31"},{"Hora":"7:11"},{"Hora":"14:11"}]},{"Id":5155780,"Funciones":[{"Hora":"10:21"},{"Hora":"8:06"},{"Hora":"9:03"},{"Hora":"14:10"},{"Hora":"8:41"},{"Hora":"20:29"},{"Hora":"9:37"},{"Hora":"7:44"},{"Hora":"11:07"}]},{"Id":3731562,"Funciones":[{"Hora":"13:22"},{"Hora":"16:43"},{"Hora":"9:43"},{"Hora":"12:33"},{"Hora":"15:07"}]},{"Id":4481414,"Funciones":[{"Hora":"12:54"},{"Hora":"9:22"},{"Hora":"13:29"},{"Hora":"7:58"},{"Hora":"10:41"},{"Hora":"13:35"},{"Hora":"11:18"},{"Hora":"11:22"},{"Hora":"18:55"}]},{"Id":3922818,"Funciones":[{"Hora":"17:42"},{"Hora":"19:17"},{"Hora":"20:46"},{"Hora":"8:09"},{"Hora":"15:03"}]},{"Id":4030600,"Funciones":[{"Hora":"10:41"},{"Hora":"7:17"},{"Hora":"16:05"},{"Hora":"7:05"},{"Hora":"11:25"},{"Hora":"7:12"}]}]},
{"Teatro":"Cine Colombia Portal 80","Pelicula":[{"Id":1753383,"Funciones":[{"Hora":"9:12"},{"Hora":"19:28"},{"Hora":"16:59"},{"Hora":"20:00"},{"Hora":"14:19"},{"Hora":"14:27"},{"Hora":"12:14"},{"Hora":"11:16"},{"Hora":"9:29"}]},{"Id":4116284,"Funciones":[{"Hora":"18:52"},{"Hora":"18:02"},{"Hora":"9:26"},{"Hora":"12:57"},{"Hora":"18:23"},{"Hora":"15:43"},{"Hora":"12:19"},{"Hora":"16:04"},{"Hora":"19:30"}]},{"Id":5052448,"Funciones":[{"Hora":"20:13"},{"Hora":"13:24"},{"Hora":"7:36"},{"Hora":"14:45"},{"Hora":"16:54"},{"Hora":"8:48"}]},{"Id":4581576,"Funciones":[{"Hora":"8:22"},{"Hora":"19:35"},{"Hora":"16:03"},{"Hora":"8:34"},{"Hora":"15:17"},{"Hora":"18:13"},{"Hora":"10:16"}]},{"Id":5442430,"Funciones":[{"Hora":"18:35"},{"Hora":"16:12"},{"Hora":"7:11"},{"Hora":"11:35"},{"Hora":"12:28"},{"Hora":"20:22"},{"Hora":"12:16"},{"Hora":"13:20"}]},{"Id":4287320,"Funciones":[{"Hora":"19:14"},{"Hora":"13:26"},{"Hora":"13:41"},{"Hora":"17:01"},{"Hora":"18:00"},{"Hora":"20:28"},{"Hora":"16:24"},{"Hora":"10:08"}]},{"Id":3315342,"Funciones":[{"Hora":"18:48"},{"Hora":"15:52"},{"Hora":"20:01"},{"Hora":"16:10"},{"Hora":"16:45"}]},{"Id":493405,"Funciones":[{"Hora":"13:30"},{"Hora":"7:11"},{"Hora":"8:51"},{"Hora":"20:33"},{"Hora":"8:20"},{"Hora":"7:01"}]}]},
{"Teatro":"Cine Colombia Portoalegre","Pelicula":[{"Id":4465564,"Funciones":[{"Hora":"12:15"},{"Hora":"11:33"},{"Hora":"7:19"},{"Hora":"17:00"},{"Hora":"20:43"},{"Hora":"18:11"}]},{"Id":3315342,"Funciones":[{"Hora":"18:30"},{"Hora":"10:00"},{"Hora":"7:12"},{"Hora":"7:36"},{"Hora":"20:28"},{"Hora":"10:59"},{"Hora":"18:22"},{"Hora":"13:08"},{"Hora":"10:09"}]},{"Id":2398241,"Funciones":[{"Hora":"18:14"},{"Hora":"11:36"},{"Hora":"10:55"},{"Hora":"15:58"},{"Hora":"12:49"}]},{"Id":2568862,"Funciones":[{"Hora":"9:10"},{"Hora":"16:16"},{"Hora":"17:58"},{"Hora":"9:27"},{"Hora":"13:11"},{"Hora":"13:12"},{"Hora":"19:11"},{"Hora":"7:33"}]},{"Id":2582576,"Funciones":[{"Hora":"19:29"},{"Hora":"18:32"},{"Hora":"11:15"},{"Hora":"12:01"},{"Hora":"9:47"},{"Hora":"11:59"},{"Hora":"13:41"},{"Hora":"13:23"},{"Hora":"9:36"},{"Hora":"15:43"}]},{"Id":4481414,"Funciones":[{"Hora":"8:13"},{"Hora":"10:23"},{"Hora":"7:52"},{"Hora":"9:01"},{"Hora":"17:39"},{"Hora":"16:30"},{"Hora":"18:41"}]},{"Id":3731562,"Funciones":[{"Hora":"16:40"},{"Hora":"17:55"},{"Hora":"19:16"},{"Hora":"20:41"},{"Hora":"17:37"},{"Hora":"19:08"}]},{"Id":4030600,"Funciones":[{"Hora":"11:34"},{"Hora":"19:15"},{"Hora":"20:48"},{"Hora":"15:05"},{"Hora":"15:00"},{"Hora":"9:21"},{"Hora":"7:17"}]},{"Id":1753383,"Funciones":[{"Hora":"17:47"},{"Hora":"17:49"},{"Hora":"15:12"},{"Hora":"14:41"},{"Hora":"13:49"},{"Hora":"12:42"},{"Hora":"9:36"},{"Hora":"18:41"}]},{"Id":4481414,"Funciones":[{"Hora":"16:34"},{"Hora":"10:25"},{"Hora":"19:09"},{"Hora":"12:16"},{"Hora":"18:24"},{"Hora":"10:08"},{"Hora":"16:20"},{"Hora":"9:56"},{"Hora":"14:26"},{"Hora":"18:41"}]},{"Id":3896198,"Funciones":[{"Hora":"7:22"},{"Hora":"15:32"},{"Hora":"16:10"},{"Hora":"9:18"},{"Hora":"13:25"},{"Hora":"11:42"},{"Hora":"12:38"},{"Hora":"20:51"},{"Hora":"15:53"}]},{"Id":4849438,"Funciones":[{"Hora":"12:09"},{"Hora":"14:59"},{"Hora":"8:57"},{"Hora":"11:24"},{"Hora":"14:51"},{"Hora":"15:56"},{"Hora":"16:42"},{"Hora":"19:22"},{"Hora":"16:49"}]}]},
{"Teatro":"Cine Colombia Santafé","Pelicula":[{"Id":1219827,"Funciones":[{"Hora":"16:51"},{"Hora":"14:37"},{"Hora":"11:01"},{"Hora":"13:10"},{"Hora":"11:06"},{"Hora":"14:40"},{"Hora":"17:50"},{"Hora":"7:45"}]},{"Id":2763304,"Funciones":[{"Hora":"14:59"},{"Hora":"10:10"},{"Hora":"8:54"},{"Hora":"16:50"},{"Hora":"9:43"},{"Hora":"20:19"},{"Hora":"17:47"}]},{"Id":3171832,"Funciones":[{"Hora":"19:40"},{"Hora":"9:02"},{"Hora":"15:24"},{"Hora":"11:35"},{"Hora":"20:02"},{"Hora":"19:52"},{"Hora":"16:34"},{"Hora":"15:45"},{"Hora":"16:22"}]},{"Id":4849438,"Funciones":[{"Hora":"16:38"},{"Hora":"16:59"},{"Hora":"16:32"},{"Hora":"8:13"},{"Hora":"20:51"}]},{"Id":3896198,"Funciones":[{"Hora":"11:39"},{"Hora":"19:30"},{"Hora":"13:18"},{"Hora":"20:52"},{"Hora":"8:13"}]},{"Id":2582576,"Funciones":[{"Hora":"14:07"},{"Hora":"14:59"},{"Hora":"18:58"},{"Hora":"7:07"},{"Hora":"9:51"},{"Hora":"19:08"},{"Hora":"16:12"},{"Hora":"15:51"},{"Hora":"11:29"}]}]},
{"Teatro":"Cine Colombia Titán Plaza","Pelicula":[{"Id":4030600,"Funciones":[{"Hora":"15:00"},{"Hora":"18:11"},{"Hora":"7:09"},{"Hora":"10:39"},{"Hora":"10:43"},{"Hora":"19:09"},{"Hora":"17:16"},{"Hora":"9:32"},{"Hora":"19:32"}]},{"Id":1691916,"Funciones":[{"Hora":"18:51"},{"Hora":"14:06"},{"Hora":"17:49"},{"Hora":"17:26"},{"Hora":"7:17"},{"Hora":"18:40"},{"Hora":"20:56"},{"Hora":"9:34"},{"Hora":"17:53"}]},{"Id":5607714,"Funciones":[{"Hora":"12:31"},{"Hora":"7:32"},{"Hora":"12:02"},{"Hora":"11:43"},{"Hora":"17:56"},{"Hora":"16:54"}]},{"Id":4581576,"Funciones":[{"Hora":"9:11"},{"Hora":"14:38"},{"Hora":"11:03"},{"Hora":"9:43"},{"Hora":"17:03"},{"Hora":"10:42"},{"Hora":"16:42"},{"Hora":"19:15"},{"Hora":"9:49"},{"Hora":"11:22"}]},{"Id":1219827,"Funciones":[{"Hora":"19:30"},{"Hora":"17:22"},{"Hora":"7:27"},{"Hora":"17:44"},{"Hora":"15:58"}]},{"Id":4481414,"Funciones":[{"Hora":"19:04"},{"Hora":"10:34"},{"Hora":"12:09"},{"Hora":"15:31"},{"Hora":"18:21"},{"Hora":"9:59"},{"Hora":"7:13"},{"Hora":"16:57"},{"Hora":"16:06"}]}]},
{"Teatro":"Cine Colombia Unicentro","Pelicula":[{"Id":4849438,"Funciones":[{"Hora":"12:03"},{"Hora":"7:06"},{"Hora":"10:04"},{"Hora":"16:24"},{"Hora":"7:05"},{"Hora":"18:31"},{"Hora":"16:07"},{"Hora":"17:52"},{"Hora":"18:28"}]},{"Id":3731562,"Funciones":[{"Hora":"7:25"},{"Hora":"10:51"},{"Hora":"14:07"},{"Hora":"9:44"},{"Hora":"20:24"},{"Hora":"15:13"},{"Hora":"14:49"},{"Hora":"14:17"},{"Hora":"8:50"}]},{"Id":1691916,"Funciones":[{"Hora":"12:36"},{"Hora":"17:08"},{"Hora":"7:47"},{"Hora":"19:02"},{"Hora":"16:53"},{"Hora":"18:09"},{"Hora":"12:40"}]},{"Id":1293847,"Funciones":[{"Hora":"15:28"},{"Hora":"8:06"},{"Hora":"16:45"},{"Hora":"7:53"},{"Hora":"7:29"},{"Hora":"20:06"},{"Hora":"19:17"},{"Hora":"8:40"},{"Hora":"9:02"}]},{"Id":4287320,"Funciones":[{"Hora":"14:01"},{"Hora":"9:04"},{"Hora":"7:11"},{"Hora":"14:37"},{"Hora":"15:09"},{"Hora":"13:20"},{"Hora":"19:29"},{"Hora":"18:37"},{"Hora":"20:16"},{"Hora":"18:43"}]}]},
{"Teatro":"Cineland Mi Centro","Pelicula":[{"Id":5155780,"Funciones":[{"Hora":"10:03"},{"Hora":"20:26"},{"Hora":"13:11"},{"Hora":"15:42"},{"Hora":"17:04"}]},{"Id":1753383,"Funciones":[{"Hora":"14:48"},{"Hora":"20:34"},{"Hora":"9:19"},{"Hora":"15:11"},{"Hora":"10:23"},{"Hora":"11:58"}]},{"Id":2582576,"Funciones":[{"Hora":"12:15"},{"Hora":"19:48"},{"Hora":"7:03"},{"Hora":"12:56"},{"Hora":"8:35"},{"Hora":"13:24"},{"Hora":"7:53"}]},{"Id":5982852,"Funciones":[{"Hora":"18:40"},{"Hora":"19:27"},{"Hora":"18:46"},{"Hora":"19:22"},{"Hora":"16:56"}]},{"Id":3315342,"Funciones":[{"Hora":"13:26"},{"Hora":"8:14"},{"Hora":"10:31"},{"Hora":"14:28"},{"Hora":"9:06"},{"Hora":"7:31"},{"Hora":"20:28"}]},{"Id":5982852,"Funciones":[{"Hora":"8:20"},{"Hora":"10:48"},{"Hora":"18:12"},{"Hora":"13:13"},{"Hora":"16:41"},{"Hora":"9:47"},{"Hora":"8:00"},{"Hora":"11:57"}]},{"Id":3922818,"Funciones":[{"Hora":"15:51"},{"Hora":"9:22"},{"Hora":"9:46"},{"Hora":"11:05"},{"Hora":"18:03"},{"Hora":"8:51"},{"Hora":"15:13"},{"Hora":"15:21"},{"Hora":"7:33"},{"Hora":"12:11"}]},{"Id":1730768,"Funciones":[{"Hora":"9:24"},{"Hora":"12:41"},{"Hora":"16:08"},{"Hora":"8:50"},{"Hora":"16:58"},{"Hora":"14:05"},{"Hora":"20:07"},{"Hora":"19:11"},{"Hora":"17:58"},{"Hora":"16:12"}]}]},
{"Teatro":"Cinema Paraíso","Pelicula":[{"Id":4581576,"Funciones":[{"Hora":"13:07"},{"Hora":"8:20"},{"Hora":"14:59"},{"Hora":"13:32"},{"Hora":"7:48"},{"Hora":"19:52"},{"Hora":"10:58"},{"Hora":"9:25"}]},{"Id":5460276,"Funciones":[{"Hora":"13:15"},{"Hora":"12:54"},{"Hora":"13:33"},{"Hora":"19:59"},{"Hora":"20:39"},{"Hora":"18:58"},{"Hora":"13:29"},{"Hora":"15:48"},{"Hora":"15:18"},{"Hora":"8:12"}]},{"Id":1753383,"Funciones":[{"Hora":"14:32"},{"Hora":"8:57"},{"Hora":"20:02"},{"Hora":"19:14"},{"Hora":"13:50"},{"Hora":"7:14"}]},{"Id":4581576,"Funciones":[{"Hora":"20:32"},{"Hora":"14:31"},{"Hora":"15:00"},{"Hora":"17:04"},{"Hora":"16:09"},{"Hora":"16:05"},{"Hora":"10:39"},{"Hora":"17:07"},{"Hora":"13:29"},{"Hora":"16:11"}]},{"Id":498381,"Funciones":[{"Hora":"19:00"},{"Hora":"7:41"},{"Hora":"18:37"},{"Hora":"10:36"},{"Hora":"14:13"},{"Hora":"12:58"},{"Hora":"9:24"},{"Hora":"8:08"},{"Hora":"9:18"}]}]},
{"Teatro":"Cinemanía","Pelicula":[{"Id":2398241,"Funciones":[{"Hora":"15:19"},{"Hora":"20:54"},{"Hora":"7:28"},{"Hora":"9:42"},{"Hora":"19:02"},{"Hora":"19:03"},{"Hora":"16:47"},{"Hora":"18:10"},{"Hora":"12:38"}]},{"Id":4030600,"Funciones":[{"Hora":"7:33"},{"Hora":"11:55"},{"Hora":"7:26"},{"Hora":"11:21"},{"Hora":"19:30"}]},{"Id":5607714,"Funciones":[{"Hora":"12:18"},{"Hora":"9:03"},{"Hora":"11:28"},{"Hora":"13:46"},{"Hora":"11:14"},{"Hora":"10:21"},{"Hora":"8:59"},{"Hora":"19:32"},{"Hora":"13:26"}]},{"Id":5710514,"Funciones":[{"Hora":"8:02"},{"Hora":"10:03"},{"Hora":"11:43"},{"Hora":"19:47"},{"Hora":"17:00"}]},{"Id":1219827,"Funciones":[{"Hora":"19:49"},{"Hora":"12:43"},{"Hora":"17:53"},{"Hora":"16:38"},{"Hora":"17:11"},{"Hora":"12:31"},{"Hora":"13:16"}]},{"Id":4425200,"Funciones":[{"Hora":"8:17"},{"Hora":"11:07"},{"Hora":"12:48"},{"Hora":"12:34"},{"Hora":"13:46"}]},{"Id":2763304,"Funciones":[{"Hora":"14:33"},{"Hora":"8:18"},{"Hora":"11:47"},{"Hora":"18:04"},{"Hora":"13:34"}]},{"Id":1219827,"Funciones":[{"Hora":"17:43"},{"Hora":"8:07"},{"Hora":"12:55"},{"Hora":"12:21"},{"Hora":"9:41"},{"Hora":"18:23"},{"Hora":"11:56"}]},{"Id":1730768,"Funciones":[{"Hora":"8:59"},{"Hora":"15:05"},{"Hora":"19:33"},{"Hora":"18:07"},{"Hora":"9:58"},{"Hora":"15:36"},{"Hora":"7:03"},{"Hora":"18:46"}]},{"Id":3896198,"Funciones":[{"Hora":"11:15"},{"Hora":"9:05"},{"Hora":"16:29"},{"Hora":"17:01"},{"Hora":"9:38"},{"Hora":"10:37"},{"Hora":"10:12"},{"Hora":"17:15"},{"Hora":"7:59"},{"Hora":"10:00"}]}]},
{"Teatro":"Cinemark Atlantis","Pelicula":[{"Id":5052448,"Funciones":[{"Hora":"20:42"},{"Hora":"12:27"},{"Hora":"18:41"},{"Hora":"19:44"},{"Hora":"18:24"},{"Hora":"20:48"},{"Hora":"17:32"}]},{"Id":4581576,"Funciones":[{"Hora":"19:32"},{"Hora":"17:51"},{"Hora":"12:17"},{"Hora":"19:18"},{"Hora":"19:29"},{"Hora":"8:25"},{"Hora":"8:43"},{"Hora":"12:27"},{"Hora":"14:12"}]},{"Id":1753383,"Funciones":[{"Hora":"13:03"},{"Hora":"18:29"},{"Hora":"18:05"},{"Hora":"18:26"},{"Hora":"15:26"},{"Hora":"15:26"},{"Hora":"13:22"},{"Hora":"14:59"}]},{"Id":4465564,"Funciones":[{"Hora":"7:43"},{"Hora":"13:51"},{"Hora":"18:17"},{"Hora":"13:08"},{"Hora":"14:38"},{"Hora":"13:35"},{"Hora":"10:01"},{"Hora":"14:41"},{"Hora":"12:55"},{"Hora":"16:26"}]},{"Id":3462710,"Funciones":[{"Hora":"20:32"},{"Hora":"18:22"},{"Hora":"10:45"},{"Hora":"11:45"},{"Hora":"18:25"}]},{"Id":4465564,"Funciones":[{"Hora":"7:35"},{"Hora":"9:04"},{"Hora":"12:29"},{"Hora":"12:43"},{"Hora":"13:11"},{"Hora":"14:08"},{"Hora":"17:41"}]},{"Id":3922818,"Funciones":[{"Hora":"12:09"},{"Hora":"19:03"},{"Hora":"13:22"},{"Hora":"13:27"},{"Hora":"13:17"}]},{"Id":5052448,"Funciones":[{"Hora":"17:11"},{"Hora":"9:03"},{"Hora":"9:24"},{"Hora":"7:37"},{"Hora":"10:52"},{"Hora":"9:55"},{"Hora":"11:17"},{"Hora":"7:36"},{"Hora":"14:22"}]},{"Id":5442430,"Funciones":[{"Hora":"13:32"},{"Hora":"14:06"},{"Hora":"15:01"},{"Hora":"11:43"},{"Hora":"7:37"}]}]},
{"Teatro":"Cinemark Cafam Floresta","Pelicula":[{"Id":5155780,"Funciones":[{"Hora":"11:31"},{"Hora":"19:20"},{"Hora":"13:29"},{"Hora":"18:23"},{"Hora":"16:16"},{"Hora":"19:46"},{"Hora":"9:30"},{"Hora":"8:05"},{"Hora":"13:42"}]},{"Id":5710514,"Funciones":[{"Hora":"18:55"},{"Hora":"11:37"},{"Hora":"18:22"},{"Hora":"11:50"},{"Hora":"17:03"},{"Hora":"15:07"},{"Hora":"13:55"},{"Hora":"15:02"},{"Hora":"16:48"},{"Hora":"8:08"}]},{"Id":4630562,"Funciones":[{"Hora":"12:42"},{"Hora":"10:49"},{"Hora":"16:28"},{"Hora":"20:06"},{"Hora":"20:41"},{"Hora":"7:55"},{"Hora":"19:23"}]},{"Id":4581576,"Funciones":[{"Hora":"18:47"},{"Hora":"19:53"},{"Hora":"11:17"},{"Hora":"13:48"},{"Hora":"18:03"},{"Hora":"19:44"},{"Hora":"18:16"}]},{"Id":4030600,"Funciones":[{"Hora":"10:36"},{"Hora":"19:58"},{"Hora":"12:58"},{"Hora":"9:57"},{"Hora":"17:44"},{"Hora":"20:41"}]},{"Id":3315342,"Funciones":[{"Hora":"14:28"},{"Hora":"16:54"},{"Hora":"12:03"},{"Hora":"16:08"},{"Hora":"11:57"},{"Hora":"20:08"},{"Hora":"9:47"},{"Hora":"12:19"},{"Hora":"11:55"},{"Hora":"11:35"}]},{"Id":3315342,"Funciones":[{"Hora":"20:00"},{"Hora":"10:09"},{"Hora":"19:32"},{"Hora":"9:39"},{"Hora":"15:57"},{"Hora":"13:05"}]},{"Id":2568862,"Funciones":[{"Hora":"17:18"},{"Hora":"8:06"},{"Hora":"15:03"},{"Hora":"18:59"},{"Hora":"14:07"}]},{"Id":5155780,"Funciones":[{"Hora":"12:48"},{"Hora":"14:44"},{"Hora":"16:17"},{"Hora":"11:14"},{"Hora":"13:30"},{"Hora":"12:16"},{"Hora":"14:41"},{"Hora":"13:42"}]},{"Id":3462710,"Funciones":[{"Hora":"19:35"},{"Hora":"10:08"},{"Hora":"15:05"},{"Hora":"9:53"},{"Hora":"12:32"},{"Hora":"16:46"},{"Hora":"11:58"},{"Hora":"15:35"}]},{"Id":3401882,"Funciones":[{"Hora":"8:18"},{"Hora":"8:19"},{"Hora":"17:40"},{"Hora":"9:08"},{"Hora":"19:13"},{"Hora":"7:58"},{"Hora":"15:18"},{"Hora":"7:46"},{"Hora":"7:13"},{"Hora":"16:29"}]},{"Id":5710514,"Funciones":[{"Hora":"11:21"},{"Hora":"17:57"},{"Hora":"10:26"},{"Hora":"16:45"},{"Hora":"7:11"},{"Hora":"17:34"},{"Hora":"17:08"},{"Hora":"13:26"}]}]},
{"Teatro":"Cinemark MiCentro El Porvenir","Pelicula":[{"Id":3315342,"Funciones":[{"Hora":"9:54"},{"Hora":"18:12"},{"Hora":"11:47"},{"Hora":"20:11"},{"Hora":"11:48"},{"Hora":"17:12"},{"Hora":"18:50"},{"Hora":"14:02"},{"Hora":"15:22"},{"Hora":"10:51"}]},{"Id":4481414,"Funciones":[{"Hora":"19:06"},{"Hora":"17:07"},{"Hora":"17:23"},{"Hora":"19:17"},{"Hora":"16:23"}]},{"Id":4465564,"Funciones":[{"Hora":"16:46"},{"Hora":"9:03"},{"Hora":"19:06"},{"Hora":"8:35"},{"Hora":"17:12"},{"Hora":"14:52"},{"Hora":"14:27"},{"Hora":"11:34"}]},{"Id":3462710,"Funciones":[{"Hora":"19:18"},{"Hora":"8:11"},{"Hora":"16:14"},{"Hora":"16:35"},{"Hora":"17:18"},{"Hora":"8:10"},{"Hora":"12:59"}]},{"Id":5710514,"Funciones":[{"Hora":"14:42"},{"Hora":"8:11"},{"Hora":"19:47"},{"Hora":"20:47"},{"Hora":"11:58"}]},{"Id":1730768,"Funciones":[{"Hora":"18:06"},{"Hora":"11:06"},{"Hora":"10:28"},{"Hora":"7:39"},{"Hora":"13:26"},{"Hora":"19:11"},{"Hora":"19:48"},{"Hora":"19:04"}]},{"Id":1293847,"Funciones":[{"Hora":"11:20"},{"Hora":"17:44"},{"Hora":"12:41"},{"Hora":"17:43"},{"Hora":"9:37"}]},{"Id":4581576,"Funciones":[{"Hora":"12:07"},{"Hora":"12:06"},{"Hora":"15:53"},{"Hora":"7:40"},{"Hora":"15:19"},{"Hora":"13:38"},{"Hora":"18:20"},{"Hora":"7:09"}]},{"Id":3401882,"Funciones":[{"Hora":"16:00"},{"Hora":"17:39"},{"Hora":"20:01"},{"Hora":"20:46"},{"Hora":"9:52"}]}]},
{"Teatro":"Cinemark Plaza Imperial","Pelicula":[{"Id":5607714,"Funciones":[{"Hora":"7:48"},{"Hora":"13:33"},{"Hora":"14:22"},{"Hora":"7:13"},{"Hora":"13:00"},{"Hora":"11:57"},{"Hora":"16:15"},{"Hora":"15:20"},{"Hora":"13:11"}]},{"Id":3717490,"Funciones":[{"Hora":"18:29"},{"Hora":"7:20"},{"Hora":"14:52"},{"Hora":"18:09"},{"Hora":"13:33"},{"Hora":"12:51"},{"Hora":"9:33"},{"Hora":"10:36"},{"Hora":"11:25"}]},{"Id":3717490,"Funciones":[{"Hora":"16:49"},{"Hora":"18:26"},{"Hora":"9:42"},{"Hora":"14:02"},{"Hora":"11:23"},{"Hora":"9:06"},{"Hora":"12:43"},{"Hora":"15:14"},{"Hora":"7:07"},{"Hora":"12:52"}]},{"Id":3405236,"Funciones":[{"Hora":"19:06"},{"Hora":"20:08"},{"Hora":"9:19"},{"Hora":"9:53"},{"Hora":"20:25"}]},{"Id":2582576,"Funciones":[{"Hora":"8:52"},{"Hora":"18:20"},{"Hora":"15:28"},{"Hora":"12:26"},{"Hora":"7:02"},{"Hora":"15:37"},{"Hora":"11:53"}]}]},
{"Teatro":"Cinemark San Rafael","Pelicula":[{"Id":1753383,"Funciones":[{"Hora":"10:54"},{"Hora":"8:32"},{"Hora":"12:55"},{"Hora":"14:55"},{"Hora":"18:48"}]},{"Id":4849438,"Funciones":[{"Hora":"14:41"},{"Hora":"18:34"},{"Hora":"18:21"},{"Hora":"18:41"},{"Hora":"10:02"},{"Hora":"17:24"},{"Hora":"14:07"},{"Hora":"19:33"}]},{"Id":2771200,"Funciones":[{"Hora":"9:14"},{"Hora":"17:50"},{"Hora":"18:07"},{"Hora":"14:56"},{"Hora":"12:19"},{"Hora":"17:40"},{"Hora":"8:35"}]},{"Id":1753383,"Funciones":[{"Hora":"10:28"},{"Hora":"14:00"},{"Hora":"17:05"},{"Hora":"16:44"},{"Hora":"8:27"}]},{"Id":1691916,"Funciones":[{"Hora":"10:09"},{"Hora":"20:31"},{"Hora":"15:26"},{"Hora":"10:19"},{"Hora":"11:33"},{"Hora":"18:46"},{"Hora":"19:24"},{"Hora":"17:47"}]},{"Id":4287320,"Funciones":[{"Hora":"19:42"},{"Hora":"19:15"},{"Hora":"16:48"},{"Hora":"13:34"},{"Hora":"7:37"},{"Hora":"18:24"},{"Hora":"8:05"},{"Hora":"15:08"},{"Hora":"19:57"}]},{"Id":4849438,"Funciones":[{"Hora":"10:01"},{"Hora":"13:10"},{"Hora":"12:16"},{"Hora":"11:27"},{"Hora":"20:08"},{"Hora":"17:21"},{"Hora":"14:51"},{"Hora":"11:07"}]},{"Id":3896198,"Funciones":[{"Hora":"7:37"},{"Hora":"7:59"},{"Hora":"13:07"},{"Hora":"20:36"},{"Hora":"13:25"},{"Hora":"18:02"},{"Hora":"9:03"},{"Hora":"12:49"}]},{"Id":4287320,"Funciones":[{"Hora":"17:44"},{"Hora":"8:18"},{"Hora":"8:32"},{"Hora":"9:04"},{"Hora":"17:22"}]},{"Id":5607714,"Funciones":[{"Hora":"9:27"},{"Hora":"14:24"},{"Hora":"7:02"},{"Hora":"19:22"},{"Hora":"20:14"},{"Hora":"8:26"},{"Hora":"12:13"},{"Hora":"15:40"},{"Hora":"9:24"},{"Hora":"17:42"}]}]},
{"Teatro":"Cinemark Trébolis El Porvenir","Pelicula":[{"Id":3922818,"Funciones":[{"Hora":"7:23"},{"Hora":"19:28"},{"Hora":"10:49"},{"Hora":"12:58"},{"Hora":"19:09"},{"Hora":"14:08"}]},{"Id":3896198,"Funciones":[{"Hora":"13:57"},{"Hora":"10:34"},{"Hora":"7:54"},{"Hora":"13:10"},{"Hora":"16:18"},{"Hora":"9:54"},{"Hora":"11:07"}]},{"Id":1219827,"Funciones":[{"Hora":"14:47"},{"Hora":"9:14"},{"Hora":"9:33"},{"Hora":"7:52"},{"Hora":"7:34"},{"Hora":"8:16"}]},{"Id":1293847,"Funciones":[{"Hora":"8:02"},{"Hora":"11:27"},{"Hora":"10:33"},{"Hora":"13:44"},{"Hora":"11:48"},{"Hora":"18:59"},{"Hora":"18:51"},{"Hora":"13:26"},{"Hora":"8:56"},{"Hora":"13:02"}]},{"Id":3731562,"Funciones":[{"Hora":"16:53"},{"Hora":"12:02"},{"Hora":"13:24"},{"Hora":"11:23"},{"Hora":"13:38"}]},{"Id":5442430,"Funciones":[{"Hora":"10:27"},{"Hora":"18:43"},{"Hora":"11:43"},{"Hora":"15:18"},{"Hora":"20:40"},{"Hora":"7:32"}]},{"Id":5155780,"Funciones":[{"Hora":"8:07"},{"Hora":"20:54"},{"Hora":"13:45"},{"Hora":"20:51"},{"Hora":"16:54"},{"Hora":"14:58"}]},{"Id":3717490,"Funciones":[{"Hora":"17:05"},{"Hora":"20:41"},{"Hora":"14:08"},{"Hora":"19:39"},{"Hora":"11:49"},{"Hora":"7:03"},{"Hora":"12:13"},{"Hora":"18:38"}]},{"Id":1219827,"Funciones":[{"Hora":"17:50"},{"Hora":"18:22"},{"Hora":"18:35"},{"Hora":"17:58"},{"Hora":"9:02"},{"Hora":"12:19"}]}]},
{"Teatro":"Cinépolis Calima","Pelicula":[{"Id":3171832,"Funciones":[{"Hora":"18:12"},{"Hora":"16:10"},{"Hora":"15:41"},{"Hora":"16:06"},{"Hora":"20:55"}]},{"Id":1753383,"Funciones":[{"Hora":"7:37"},{"Hora":"13:11"},{"Hora":"12:12"},{"Hora":"18:27"},{"Hora":"10:44"},{"Hora":"7:08"},{"Hora":"13:52"},{"Hora":"18:29"},{"Hora":"8:49"},{"Hora":"19:11"}]},{"Id":3315342,"Funciones":[{"Hora":"18:58"},{"Hora":"12:54"},{"Hora":"15:05"},{"Hora":"19:54"},{"Hora":"11:05"},{"Hora":"11:34"},{"Hora":"13:14"},{"Hora":"8:49"},{"Hora":"18:27"}]},{"Id":3401882,"Funciones":[{"Hora":"13:04"},{"Hora":"8:31"},{"Hora":"15:45"},{"Hora":"12:02"},{"Hora":"14:46"}]},{"Id":2568862,"Funciones":[{"Hora":"18:38"},{"Hora":"8:56"},{"Hora":"13:54"},{"Hora":"12:38"},{"Hora":"15:29"},{"Hora":"12:51"}]},{"Id":498381,"Funciones":[{"Hora":"12:53"},{"Hora":"15:22"},{"Hora":"20:29"},{"Hora":"9:40"},{"Hora":"13:08"},{"Hora":"12:40"}]},{"Id":3896198,"Funciones":[{"Hora":"12:35"},{"Hora":"18:52"},{"Hora":"13:30"},{"Hora":"10:14"},{"Hora":"19:29"},{"Hora":"9:03"},{"Hora":"19:19"},{"Hora":"20:04"},{"Hora":"16:51"}]},{"Id":3922818,"Funciones":[{"Hora":"11:42"},{"Hora":"12:02"},{"Hora":"15:46"},{"Hora":"13:11"},{"Hora":"18:43"},{"Hora":"15:56"},{"Hora":"7:44"}]},{"Id":2582576,"Funciones":[{"Hora":"20:45"},{"Hora":"18:45"},{"Hora":"8:35"},{"Hora":"16:47"},{"Hora":"17:14"}]},{"Id":493405,"Funciones":[{"Hora":"11:39"},{"Hora":"10:20"},{"Hora":"17:31"},{"Hora":"18:57"},{"Hora":"7:29"},{"Hora":"9:00"},{"Hora":"8:50"},{"Hora":"14:08"},{"Hora":"11:08"},{"Hora":"18:47"}]}]},
{"Teatro":"Cinépolis Fontanar","Pelicula":[{"Id":2568862,"Funciones":[{"Hora":"20:15"},{"Hora":"15:42"},{"Hora":"12:12"},{"Hora":"16:47"},{"Hora":"9:37"},{"Hora":"10:43"},{"Hora":"15:35"},{"Hora":"12:11"},{"Hora":"17:45"},{"Hora":"17:54"}]},{"Id":3401882,"Funciones":[{"Hora":"14:43"},{"Hora":"15:18"},{"Hora":"20:50"},{"Hora":"9:10"},{"Hora":"14:11"},{"Hora":"9:41"},{"Hora":"13:42"},{"Hora":"18:23"}]},{"Id":5442430,"Funciones":[{"Hora":"11:00"},{"Hora":"7:39"},{"Hora":"19:09"},{"Hora":"11:53"},{"Hora":"9:42"},{"Hora":"10:30"},{"Hora":"12:56"},{"Hora":"20:01"},{"Hora":"12:30"}]},{"Id":4116284,"Funciones":[{"Hora":"15:19"},{"Hora":"20:27"},{"Hora":"19:59"},{"Hora":"9:53"},{"Hora":"8:19"},{"Hora":"7:17"},{"Hora":"16:20"}]},{"Id":4030600,"Funciones":[{"Hora":"16:10"},{"Hora":"10:53"},{"Hora":"10:06"},{"Hora":"10:16"},{"Hora":"11:27"},{"Hora":"20:10"},{"Hora":"20:38"},{"Hora":"11:34"}]},{"Id":2763304,"Funciones":[{"Hora":"12:22"},{"Hora":"15:41"},{"Hora":"12:35"},{"Hora":"17:07"},{"Hora":"15:08"},{"Hora":"16:23"},{"Hora":"8:54"}]},{"Id":4116284,"Funciones":[{"Hora":"10:22"},{"Hora":"17:59"},{"Hora":"9:25"},{"Hora":"17:21"},{"Hora":"18:58"}]},{"Id":1753383,"Funciones":[{"Hora":"17:35"},{"Hora":"9:38"},{"Hora":"19:25"},{"Hora":"13:38"},{"Hora":"19:03"},{"Hora":"16:41"},{"Hora":"10:14"}]}]},
{"Teatro":"Cinépolis Hayuelos","Pelicula":[{"Id":4581576,"Funciones":[{"Hora":"16:53"},{"Hora":"13:44"},{"Hora":"12:00"},{"Hora":"16:15"},{"Hora":"10:31"}]},{"Id":4425200,"Funciones":[{"Hora":"15:03"},{"Hora":"8:36"},{"Hora":"13:06"},{"Hora":"17:13"},{"Hora":"16:10"},{"Hora":"19:28"},{"Hora":"19:11"},{"Hora":"9:30"},{"Hora":"18:28"},{"Hora":"12:28"}]},{"Id":3171832,"Funciones":[{"Hora":"8:00"},{"Hora":"11:37"},{"Hora":"10:56"},{"Hora":"16:39"},{"Hora":"18:49"}]},{"Id":3717490,"Funciones":[{"Hora":"13:20"},{"Hora":"19:14"},{"Hora":"20:00"},{"Hora":"13:00"},{"Hora":"19:55"}]},{"Id":2398241,"Funciones":[{"Hora":"15:32"},{"Hora":"11:54"},{"Hora":"9:50"},{"Hora":"11:51"},{"Hora":"10:03"},{"Hora":"13:46"},{"Hora":"17:36"}]},{"Id":4630562,"Funciones":[{"Hora":"15:35"},{"Hora":"18:35"},{"Hora":"10:26"},{"Hora":"18:25"},{"Hora":"15:37"}]},{"Id":5052448,"Funciones":[{"Hora":"11:44"},{"Hora":"18:02"},{"Hora":"13:15"},{"Hora":"11:45"},{"Hora":"18:12"},{"Hora":"19:11"},{"Hora":"10:13"},{"Hora":"10:23"},{"Hora":"8:14"},{"Hora":"17:13"}]},{"Id":1753383,"Funciones":[{"Hora":"10:55"},{"Hora":"18:48"},{"Hora":"17:52"},{"Hora":"20:05"},{"Hora":"11:03"},{"Hora":"20:57"}]},{"Id":498381,"Funciones":[{"Hora":"11:08"},{"Hora":"14:57"},{"Hora":"19:32"},{"Hora":"12:42"},{"Hora":"8:00"},{"Hora":"18:19"},{"Hora":"17:10"}]}]},
{"Teatro":"Procinal - IMAX Plaza de las Américas","Pelicula":[{"Id":2398241,"Funciones":[{"Hora":"20:41"},{"Hora":"12:49"},{"Hora":"11:52"},{"Hora":"16:19"},{"Hora":"11:19"},{"Hora":"15:11"},{"Hora":"13:30"},{"Hora":"10:29"},{"Hora":"17:49"}]},{"Id":1219827,"Funciones":[{"Hora":"13:13"},{"Hora":"8:14"},{"Hora":"20:17"},{"Hora":"17:42"},{"Hora":"20:25"},{"Hora":"17:09"},{"Hora":"9:57"}]},{"Id":1753383,"Funciones":[{"Hora":"13:17"},{"Hora":"14:53"},{"Hora":"12:03"},{"Hora":"15:59"},{"Hora":"10:44"}]},{"Id":3731562,"Funciones":[{"Hora":"11:03"},{"Hora":"9:14"},{"Hora":"13:50"},{"Hora":"15:05"},{"Hora":"15:30"},{"Hora":"7:26"}]},{"Id":1293847,"Funciones":[{"Hora":"9:34"},{"Hora":"17:40"},{"Hora":"19:52"},{"Hora":"18:01"},{"Hora":"9:31"},{"Hora":"14:37"},{"Hora":"19:06"},{"Hora":"13:55"},{"Hora":"15:27"},{"Hora":"9:15"}]},{"Id":3401882,"Funciones":[{"Hora":"11:10"},{"Hora":"15:23"},{"Hora":"15:20"},{"Hora":"14:43"},{"Hora":"11:48"},{"Hora":"13:21"}]},{"Id":3896198,"Funciones":[{"Hora":"7:55"},{"Hora":"12:55"},{"Hora":"14:49"},{"Hora":"17:39"},{"Hora":"7:19"},{"Hora":"17:16"},{"Hora":"12:53"},{"Hora":"17:40"}]},{"Id":5710514,"Funciones":[{"Hora":"10:12"},{"Hora":"11:57"},{"Hora":"12:20"},{"Hora":"12:45"},{"Hora":"10:39"},{"Hora":"8:22"},{"Hora":"11:35"}]}]},
{"Teatro":"Procinal Bima","Pelicula":[{"Id":5710514,"Funciones":[{"Hora":"13:41"},{"Hora":"11:32"},{"Hora":"7:02"},{"Hora":"16:15"},{"Hora":"18:10"},{"Hora":"17:53"},{"Hora":"7:07"}]},{"Id":2568862,"Funciones":[{"Hora":"13:49"},{"Hora":"15:53"},{"Hora":"17:54"},{"Hora":"9:40"},{"Hora":"20:12"},{"Hora":"20:23"},{"Hora":"16:07"},{"Hora":"19:38"},{"Hora":"13:54"},{"Hora":"12:58"}]},{"Id":493405,"Funciones":[{"Hora":"18:51"},{"Hora":"8:59"},{"Hora":"9:08"},{"Hora":"12:29"},{"Hora":"18:26"},{"Hora":"7:55"},{"Hora":"8:30"},{"Hora":"11:37"}]},{"Id":1293847,"Funciones":[{"Hora":"14:12"},{"Hora":"8:32"},{"Hora":"9:56"},{"Hora":"13:57"},{"Hora":"9:35"},{"Hora":"20:11"}]},{"Id":2771200,"Funciones":[{"Hora":"9:40"},{"Hora":"8:01"},{"Hora":"20:41"},{"Hora":"19:10"},{"Hora":"18:56"},{"Hora":"15:31"},{"Hora":"13:35"},{"Hora":"17:20"},{"Hora":"17:31"}]},{"Id":498381,"Funciones":[{"Hora":"13:22"},{"Hora":"15:16"},{"Hora":"8:42"},{"Hora":"11:45"},{"Hora":"14:28"},{"Hora":"20:14"},{"Hora":"14:28"}]},{"Id":5982852,"Funciones":[{"Hora":"14:19"},{"Hora":"15:15"},{"Hora":"12:24"},{"Hora":"10:20"},{"Hora":"14:16"},{"Hora":"10:23"},{"Hora":"10:58"}]}]},
{"Teatro":"Procinal Bulevar Niza","Pelicula":[{"Id":3171832,"Funciones":[{"Hora":"13:26"},{"Hora":"17:23"},{"Hora":"7:42"},{"Hora":"16:41"},{"Hora":"7:03"},{"Hora":"11:27"},{"Hora":"14:48"}]},{"Id":3896198,"Funciones":[{"Hora":"15:56"},{"Hora":"15:07"},{"Hora":"12:05"},{"Hora":"16:35"},{"Hora":"17:08"},{"Hora":"18:31"},{"Hora":"13:13"}]},{"Id":3462710,"Funciones":[{"Hora":"17:29"},{"Hora":"18:29"},{"Hora":"15:32"},{"Hora":"14:05"},{"Hora":"10:17"}]},{"Id":1691916,"Funciones":[{"Hora":"8:38"},{"Hora":"15:05"},{"Hora":"14:53"},{"Hora":"13:07"},{"Hora":"8:47"},{"Hora":"14:50"},{"Hora":"15:16"}]},{"Id":5710514,"Funciones":[{"Hora":"14:28"},{"Hora":"18:26"},{"Hora":"10:53"},{"Hora":"13:17"},{"Hora":"17:42"}]},{"Id":5607714,"Funciones":[{"Hora":"8:30"},{"Hora":"14:59"},{"Hora":"7:24"},{"Hora":"17:35"},{"Hora":"13:03"},{"Hora":"16:09"},{"Hora":"16:18"},{"Hora":"11:16"},{"Hora":"18:26"}]},{"Id":2771200,"Funciones":[{"Hora":"17:33"},{"Hora":"16:14"},{"Hora":"14:46"},{"Hora":"16:17"},{"Hora":"8:17"},{"Hora":"13:23"},{"Hora":"10:27"},{"Hora":"12:20"},{"Hora":"20:49"},{"Hora":"11:07"}]},{"Id":2398241,"Funciones":[{"Hora":"20:28"},{"Hora":"7:51"},{"Hora":"13:11"},{"Hora":"9:09"},{"Hora":"17:01"},{"Hora":"16:07"}]},{"Id":1293847,"Funciones":[{"Hora":"9:39"},{"Hora":"13:28"},{"Hora":"10:16"},{"Hora":"19:49"},{"Hora":"7:32"},{"Hora":"14:06"},{"Hora":"8:09"},{"Hora":"7:14"}]},{"Id":3874544,"Funciones":[{"Hora":"10:13"},{"Hora":"17:15"},{"Hora":"18:04"},{"Hora":"13:42"},{"Hora":"19:17"},{"Hora":"20:06"},{"Hora":"13:31"},{"Hora":"7:48"},{"Hora":"15:22"},{"Hora":"18:31"}]},{"Id":5442430,"Funciones":[{"Hora":"19:00"},{"Hora":"18:41"},{"Hora":"10:25"},{"Hora":"7:20"},{"Hora":"11:52"}]},{"Id":5052448,"Funciones":[{"Hora":"10:01"},{"Hora":"11:39"},{"Hora":"9:09"},{"Hora":"9:43"},{"Hora":"18:48"}]}]},
{"Teatro":"Procinal Centro Suba","Pelicula":[{"Id":5155780,"Funciones":[{"Hora":"10:39"},{"Hora":"9:09"},{"Hora":"7:42"},{"Hora":"15:30"},{"Hora":"16:38"},{"Hora":"15:21"},{"Hora":"15:29"},{"Hora":"9:06"},{"Hora":"7:49"},{"Hora":"12:43"}]},{"Id":3922818,"Funciones":[{"Hora":"15:47"},{"Hora":"19:58"},{"Hora":"7:57"},{"Hora":"15:40"},{"Hora":"15:27"}]},{"Id":2582576,"Funciones":[{"Hora":"18:10"},{"Hora":"12:29"},{"Hora":"12:58"},{"Hora":"9:20"},{"Hora":"8:19"},{"Hora":"7:50"}]},{"Id":4217392,"Funciones":[{"Hora":"12:53"},{"Hora":"15:42"},{"Hora":"12:01"},{"Hora":"12:46"},{"Hora":"19:41"},{"Hora":"18:30"},{"Hora":"11:55"}]},{"Id":3401882,"Funciones":[{"Hora":"17:16"},{"Hora":"7:02"},{"Hora":"20:07"},{"Hora":"20:06"},{"Hora":"17:40"},{"Hora":"13:56"}]},{"Id":5710514,"Funciones":[{"Hora":"12:29"},{"Hora":"10:33"},{"Hora":"9:08"},{"Hora":"11:38"},{"Hora":"11:05"},{"Hora":"18:08"},{"Hora":"13:11"},{"Hora":"14:08"}]},{"Id":2763304,"Funciones":[{"Hora":"20:54"},{"Hora":"18:26"},{"Hora":"17:39"},{"Hora":"19:59"},{"Hora":"14:06"},{"Hora":"10:25"},{"Hora":"9:10"},{"Hora":"10:40"}]},{"Id":4287320,"Funciones":[{"Hora":"8:51"},{"Hora":"16:06"},{"Hora":"16:25"},{"Hora":"10:44"},{"Hora":"8:40"},{"Hora":"17:51"},{"Hora":"16:02"},{"Hora":"16:31"},{"Hora":"13:03"},{"Hora":"8:36"}]},{"Id":5460276,"Funciones":[{"Hora":"8:49"},{"Hora":"10:16"},{"Hora":"18:54"},{"Hora":"15:22"},{"Hora":"20:55"},{"Hora":"8:59"},{"Hora":"8:24"},{"Hora":"18:17"},{"Hora":"16:49"},{"Hora":"9:55"}]},{"Id":4030600,"Funciones":[{"Hora":"17:11"},{"Hora":"20:10"},{"Hora":"8:10"},{"Hora":"9:28"},{"Hora":"19:44"}]},{"Id":2771200,"Funciones":[{"Hora":"10:56"},{"Hora":"15:34"},{"Hora":"7:54"},{"Hora":"15:13"},{"Hora":"19:38"},{"Hora":"13:33"},{"Hora":"17:15"},{"Hora":"7:47"}]}]},
{"Teatro":"Procinal Ciudad Tunal","Pelicula":[{"Id":4630562,"Funciones":[{"Hora":"14:19"},{"Hora":"8:29"},{"Hora":"9:23"},{"Hora":"17:54"},{"Hora":"12:28"},{"Hora":"16:54"}]},{"Id":4217392,"Funciones":[{"Hora":"15:31"},{"Hora":"7:46"},{"Hora":"12:25"},{"Hora":"10:16"},{"Hora":"7:46"},{"Hora":"15:50"},{"Hora":"7:20"},{"Hora":"19:10"},{"Hora":"20:29"},{"Hora":"19:06"}]},{"Id":2582576,"Funciones":[{"Hora":"16:31"},{"Hora":"13:40"},{"Hora":"15:36"},{"Hora":"10:03"},{"Hora":"16:27"},{"Hora":"20:48"}]},{"Id":4116284,"Funciones":[{"Hora":"12:38"},{"Hora":"17:32"},{"Hora":"10:57"},{"Hora":"14:55"},{"Hora":"18:58"},{"Hora":"15:43"}]},{"Id":3922818,"Funciones":[{"Hora":"14:07"},{"Hora":"19:30"},{"Hora":"15:06"},{"Hora":"19:57"},{"Hora":"15:30"},{"Hora":"19:36"},{"Hora":"20:43"},{"Hora":"14:14"}]},{"Id":1691916,"Funciones":[{"Hora":"18:25"},{"Hora":"17:50"},{"Hora":"18:01"},{"Hora":"18:27"},{"Hora":"10:12"}]}]},
{"Teatro":"Procinal Palatino","Pelicula":[{"Id":4481414,"Funciones":[{"Hora":"13:12"},{"Hora":"11:07"},{"Hora":"20:33"},{"Hora":"12:17"},{"Hora":"7:39"},{"Hora":"20:09"},{"Hora":"15:10"},{"Hora":"17:58"},{"Hora":"17:05"},{"Hora":"7:32"}]},{"Id":4116284,"Funciones":[{"Hora":"17:06"},{"Hora":"10:11"},{"Hora":"12:02"},{"Hora":"12:13"},{"Hora":"12:15"},{"Hora":"7:45"}]},{"Id":3171832,"Funciones":[{"Hora":"8:24"},{"Hora":"12:17"},{"Hora":"9:35"},{"Hora":"16:18"},{"Hora":"18:33"},{"Hora":"17:40"},{"Hora":"10:27"},{"Hora":"7:21"},{"Hora":"16:15"}]},{"Id":1753383,"Funciones":[{"Hora":"7:54"},{"Hora":"19:48"},{"Hora":"19:54"},{"Hora":"14:14"},{"Hora":"7:17"},{"Hora":"19:46"},{"Hora":"9:40"},{"Hora":"10:07"},{"Hora":"7:42"}]},{"Id":4217392,"Funciones":[{"Hora":"7:20"},{"Hora":"11:11"},{"Hora":"13:04"},{"Hora":"12:14"},{"Hora":"18:37"},{"Hora":"8:47"}]},{"Id":1753383,"Funciones":[{"Hora":"11:31"},{"Hora":"19:44"},{"Hora":"8:32"},{"Hora":"16:12"},{"Hora":"16:46"},{"Hora":"15:03"},{"Hora":"16:46"},{"Hora":"16:14"}]},{"Id":3401882,"Funciones":[{"Hora":"12:07"},{"Hora":"13:45"},{"Hora":"18:47"},{"Hora":"18:54"},{"Hora":"11:43"},{"Hora":"11:16"}]}]},
{"Teatro":"Procinal Plaza de las Américas","Pelicula":[{"Id":2582576,"Funciones":[{"Hora":"8:31"},{"Hora":"12:05"},{"Hora":"10:04"},{"Hora":"10:19"},{"Hora":"8:26"},{"Hora":"18:34"},{"Hora":"11:31"},{"Hora":"9:52"},{"Hora":"11:11"}]},{"Id":3401882,"Funciones":[{"Hora":"14:37"},{"Hora":"7:13"},{"Hora":"16:36"},{"Hora":"11:09"},{"Hora":"16:55"}]},{"Id":2763304,"Funciones":[{"Hora":"14:13"},{"Hora":"18:33"},{"Hora":"16:34"},{"Hora":"17:17"},{"Hora":"19:02"},{"Hora":"14:34"},{"Hora":"13:11"},{"Hora":"8:27"},{"Hora":"7:08"},{"Hora":"15:33"}]},{"Id":4217392,"Funciones":[{"Hora":"19:13"},{"Hora":"11:35"},{"Hora":"20:56"},{"Hora":"7:09"},{"Hora":"20:26"},{"Hora":"15:04"}]},{"Id":4581576,"Funciones":[{"Hora":"16:44"},{"Hora":"9:31"},{"Hora":"18:06"},{"Hora":"17:29"},{"Hora":"11:29"},{"Hora":"18:06"},{"Hora":"15:30"},{"Hora":"13:01"}]},{"Id":2582576,"Funciones":[{"Hora":"15:22"},{"Hora":"8:03"},{"Hora":"9:44"},{"Hora":"8:43"},{"Hora":"7:20"},{"Hora":"7:11"}]},{"Id":4630562,"Funciones":[{"Hora":"7:05"},{"Hora":"10:24"},{"Hora":"9:21"},{"Hora":"14:36"},{"Hora":"20:41"},{"Hora":"17:13"}]},{"Id":1730768,"Funciones":[{"Hora":"20:35"},{"Hora":"15:35"},{"Hora":"9:28"},{"Hora":"10:16"},{"Hora":"20:39"},{"Hora":"12:13"}]},{"Id":4425200,"Funciones":[{"Hora":"20:41"},{"Hora":"10:18"},{"Hora":"14:26"},{"Hora":"12:29"},{"Hora":"9:17"}]},{"Id":3462710,"Funciones":[{"Hora":"16:31"},{"Hora":"13:49"},{"Hora":"16:28"},{"Hora":"10:41"},{"Hora":"20:19"}]}]},
{"Teatro":"Procinal Portal de la Sabana","Pelicula":[{"Id":3401882,"Funciones":[{"Hora":"7:38"},{"Hora":"12:07"},{"Hora":"20:34"},{"Hora":"16:53"},{"Hora":"20:02"},{"Hora":"12:14"},{"Hora":"20:41"}]},{"Id":498381,"Funciones":[{"Hora":"19:08"},{"Hora":"10:23"},{"Hora":"20:36"},{"Hora":"18:40"},{"Hora":"15:04"},{"Hora":"17:37"},{"Hora":"20:46"},{"Hora":"19:21"},{"Hora":"8:33"}]},{"Id":4465564,"Funciones":[{"Hora":"9:31"},{"Hora":"13:35"},{"Hora":"10:18"},{"Hora":"18:44"},{"Hora":"14:17"},{"Hora":"17:53"},{"Hora":"8:05"},{"Hora":"8:14"},{"Hora":"8:58"},{"Hora":"18:12"}]},{"Id":1219827,"Funciones":[{"Hora":"19:31"},{"Hora":"14:59"},{"Hora":"19:10"},{"Hora":"10:16"},{"Hora":"13:51"},{"Hora":"19:03"},{"Hora":"12:13"}]},{"Id":5442430,"Funciones":[{"Hora":"10:46"},{"Hora":"17:29"},{"Hora":"15:05"},{"Hora":"15:04"},{"Hora":"19:10"},{"Hora":"14:01"},{"Hora":"12:15"}]},{"Id":3401882,"Funciones":[{"Hora":"14:38"},{"Hora":"15:36"},{"Hora":"8:40"},{"Hora":"11:08"},{"Hora":"12:32"},{"Hora":"14:21"},{"Hora":"12:18"},{"Hora":"16:49"}]}]},
{"Teatro":"Procinal Salitre","Pelicula":[{"Id":2763304,"Funciones":[{"Hora":"17:10"},{"Hora":"17:43"},{"Hora":"9:34"},{"Hora":"9:57"},{"Hora":"7:27"},{"Hora":"10:24"},{"Hora":"14:20"}]},{"Id":3731562,"Funciones":[{"Hora":"14:53"},{"Hora":"9:26"},{"Hora":"16:42"},{"Hora":"15:20"},{"Hora":"18:07"},{"Hora":"10:42"}]},{"Id":5982852,"Funciones":[{"Hora":"10:37"},{"Hora":"13:58"},{"Hora":"16:10"},{"Hora":"9:37"},{"Hora":"11:28"},{"Hora":"16:54"}]},{"Id":4465564,"Funciones":[{"Hora":"19:00"},{"Hora":"17:55"},{"Hora":"13:32"},{"Hora":"7:10"},{"Hora":"7:06"},{"Hora":"15:08"}]},{"Id":5155780,"Funciones":[{"Hora":"9:03"},{"Hora":"17:10"},{"Hora":"16:16"},{"Hora":"15:34"},{"Hora":"12:03"},{"Hora":"14:59"}]},{"Id":2398241,"Funciones":[{"Hora":"19:46"},{"Hora":"7:28"},{"Hora":"12:49"},{"Hora":"7:52"},{"Hora":"19:29"},{"Hora":"13:41"},{"Hora":"8:57"},{"Hora":"19:07"},{"Hora":"15:05"}]},{"Id":2763304,"Funciones":[{"Hora":"12:13"},{"Hora":"9:42"},{"Hora":"19:37"},{"Hora":"20:35"},{"Hora":"10:37"},{"Hora":"14:20"},{"Hora":"8:13"}]},{"Id":4287320,"Funciones":[{"Hora":"12:14"},{"Hora":"13:01"},{"Hora":"7:13"},{"Hora":"10:57"},{"Hora":"10:31"}]},{"Id":5442430,"Funciones":[{"Hora":"12:12"},{"Hora":"15:09"},{"Hora":"15:42"},{"Hora":"7:47"},{"Hora":"9:23"},{"Hora":"20:40"},{"Hora":"9:42"},{"Hora":"18:55"},{"Hora":"18:06"}]},{"Id":4630562,"Funciones":[{"Hora":"18:03"},{"Hora":"15:34"},{"Hora":"14:47"},{"Hora":"12:13"},{"Hora":"7:26"},{"Hora":"11:36"}]},{"Id":3717490,"Funciones":[{"Hora":"20:28"},{"Hora":"11:19"},{"Hora":"8:03"},{"Hora":"16:36"},{"Hora":"14:09"},{"Hora":"16:40"},{"Hora":"13:12"},{"Hora":"20:14"},{"Hora":"8:42"}]},{"Id":498381,"Funciones":[{"Hora":"16:44"},{"Hora":"16:07"},{"Hora":"8:27"},{"Hora":"20:02"},{"Hora":"9:17"}]}]},
{"Teatro":"Procinal Tintal Plaza","Pelicula":[{"Id":2582576,"Funciones":[{"Hora":"9:00"},{"Hora":"15:29"},{"Hora":"20:17"},{"Hora":"10:29"},{"Hora":"14:58"},{"Hora":"18:01"},{"Hora":"14:23"}]},{"Id":3922818,"Funciones":[{"Hora":"17:09"},{"Hora":"16:28"},{"Hora":"8:25"},{"Hora":"14:42"},{"Hora":"8:22"},{"Hora":"14:17"}]},{"Id":2771200,"Funciones":[{"Hora":"20:21"},{"Hora":"11:10"},{"Hora":"11:47"},{"Hora":"16:55"},{"Hora":"20:00"},{"Hora":"11:50"},{"Hora":"7:56"},{"Hora":"17:09"},{"Hora":"18:57"},{"Hora":"7:55"}]},{"Id":1730768,"Funciones":[{"Hora":"19:12"},{"Hora":"13:26"},{"Hora":"8:09"},{"Hora":"16:22"},{"Hora":"9:14"},{"Hora":"7:33"}]},{"Id":4630562,"Funciones":[{"Hora":"8:33"},{"Hora":"15:24"},{"Hora":"20:20"},{"Hora":"17:01"},{"Hora":"10:14"},{"Hora":"17:39"},{"Hora":"19:57"},{"Hora":"15:30"}]},{"Id":4465564,"Funciones":[{"Hora":"9:42"},{"Hora":"18:19"},{"Hora":"19:30"},{"Hora":"8:05"},{"Hora":"19:17"},{"Hora":"11:02"},{"Hora":"10:26"},{"Hora":"13:36"},{"Hora":"12:35"}]},{"Id":2582576,"Funciones":[{"Hora":"7:45"},{"Hora":"9:47"},{"Hora":"15:19"},{"Hora":"9:58"},{"Hora":"12:12"},{"Hora":"16:18"},{"Hora":"20:39"}]},{"Id":493405,"Funciones":[{"Hora":"8:50"},{"Hora":"20:53"},{"Hora":"15:33"},{"Hora":"20:22"},{"Hora":"7:49"},{"Hora":"16:47"},{"Hora":"11:18"},{"Hora":"15:17"}]},{"Id":4116284,"Funciones":[{"Hora":"18:20"},{"Hora":"9:01"},{"Hora":"16:22"},{"Hora":"7:42"},{"Hora":"9:15"},{"Hora":"20:43"},{"Hora":"10:03"},{"Hora":"8:51"},{"Hora":"19:28"},{"Hora":"17:07"}]},{"Id":5460276,"Funciones":[{"Hora":"9:43"},{"Hora":"18:47"},{"Hora":"19:22"},{"Hora":"18:31"},{"Hora":"10:37"},{"Hora":"18:03"},{"Hora":"12:35"},{"Hora":"13:10"}]},{"Id":5710514,"Funciones":[{"Hora":"9:53"},{"Hora":"10:34"},{"Hora":"10:52"},{"Hora":"8:49"},{"Hora":"20:27"},{"Hora":"14:06"},{"Hora":"7:26"},{"Hora":"14:59"},{"Hora":"8:13"},{"Hora":"9:27"}]},{"Id":3171832,"Funciones":[{"Hora":"8:28"},{"Hora":"11:41"},{"Hora":"10:30"},{"Hora":"8:47"},{"Hora":"17:22"},{"Hora":"16:01"},{"Hora":"19:57"},{"Hora":"8:17"},{"Hora":"18:45"},{"Hora":"12:42"}]}]},
{"Teatro":"Procinal Unicentro de Occidente","Pelicula":[{"Id":3874544,"Funciones":[{"Hora":"9:26"},{"Hora":"15:12"},{"Hora":"7:14"},{"Hora":"7:20"},{"Hora":"14:51"},{"Hora":"10:39"},{"Hora":"7:17"},{"Hora":"8:51"},{"Hora":"18:29"},{"Hora":"16:08"}]},{"Id":5982852,"Funciones":[{"Hora":"16:18"},{"Hora":"9:55"},{"Hora":"18:35"},{"Hora":"9:32"},{"Hora":"17:00"},{"Hora":"15:28"}]},{"Id":3896198,"Funciones":[{"Hora":"16:59"},{"Hora":"11:29"},{"Hora":"17:23"},{"Hora":"19:48"},{"Hora":"15:37"},{"Hora":"20:31"},{"Hora":"12:26"},{"Hora":"18:14"},{"Hora":"7:47"}]},{"Id":2568862,"Funciones":[{"Hora":"20:36"},{"Hora":"14:57"},{"Hora":"16:12"},{"Hora":"17:47"},{"Hora":"12:28"},{"Hora":"18:37"},{"Hora":"11:27"},{"Hora":"20:05"},{"Hora":"13:37"},{"Hora":"17:50"}]},{"Id":5442430,"Funciones":[{"Hora":"13:08"},{"Hora":"18:06"},{"Hora":"11:59"},{"Hora":"7:43"},{"Hora":"12:50"},{"Hora":"20:54"},{"Hora":"7:12"},{"Hora":"18:07"},{"Hora":"7:39"}]},{"Id":3717490,"Funciones":[{"Hora":"9:05"},{"Hora":"13:05"},{"Hora":"12:48"},{"Hora":"20:26"},{"Hora":"14:51"},{"Hora":"13:38"},{"Hora":"16:41"},{"Hora":"19:05"},{"Hora":"20:53"},{"Hora":"18:10"}]},{"Id":498381,"Funciones":[{"Hora":"11:01"},{"Hora":"11:48"},{"Hora":"7:43"},{"Hora":"18:11"},{"Hora":"16:17"},{"Hora":"11:42"}]},{"Id":5982852,"Funciones":[{"Hora":"8:41"},{"Hora":"14:49"},{"Hora":"20:41"},{"Hora":"12:06"},{"Hora":"17:18"},{"Hora":"19:13"},{"Hora":"18:06"},{"Hora":"12:42"}]},{"Id":5442430,"Funciones":[{"Hora":"12:55"},{"Hora":"12:29"},{"Hora":"16:03"},{"Hora":"15:13"},{"Hora":"20:03"},{"Hora":"10:24"},{"Hora":"10:11"},{"Hora":"8:02"},{"Hora":"16:06"}]},{"Id":2582576,"Funciones":[{"Hora":"20:09"},{"Hora":"10:07"},{"Hora":"17:08"},{"Hora":"13:50"},{"Hora":"11:53"},{"Hora":"13:49"},{"Hora":"18:31"},{"Hora":"19:03"},{"Hora":"8:11"}]},{"Id":498381,"Funciones":[{"Hora":"16:17"},{"Hora":"9:21"},{"Hora":"19:31"},{"Hora":"14:01"},{"Hora":"19:57"},{"Hora":"10:24"},{"Hora":"13:24"},{"Hora":"15:24"}]},{"Id":3922818,"Funciones":[{"Hora":"8:00"},{"Hora":"17:32"},{"Hora":"20:50"},{"Hora":"19:39"},{"Hora":"20:12"},{"Hora":"12:51"},{"Hora":"11:30"}]}]},
{"Teatro":"Procinal Unisur","Pelicula":[{"Id":4481414,"Funciones":[{"Hora":"15:45"},{"Hora":"11:14"},{"Hora":"14:02"},{"Hora":"19:12"},{"Hora":"13:40"}]},{"Id":3922818,"Funciones":[{"Hora":"11:35"},{"Hora":"10:25"},{"Hora":"9:54"},{"Hora":"8:08"},{"Hora":"8:16"},{"Hora":"10:07"},{"Hora":"14:41"},{"Hora":"17:16"},{"Hora":"18:15"}]},{"Id":2582576,"Funciones":[{"Hora":"16:44"},{"Hora":"12:26"},{"Hora":"11:13"},{"Hora":"18:26"},{"Hora":"8:22"},{"Hora":"7:19"},{"Hora":"15:03"}]},{"Id":3874544,"Funciones":[{"Hora":"18:37"},{"Hora":"12:56"},{"Hora":"7:21"},{"Hora":"18:15"},{"Hora":"11:10"}]},{"Id":1730768,"Funciones":[{"Hora":"15:46"},{"Hora":"13:01"},{"Hora":"11:11"},{"Hora":"17:40"},{"Hora":"12:37"},{"Hora":"18:20"},{"Hora":"17:15"},{"Hora":"8:38"},{"Hora":"19:17"}]},{"Id":5052448,"Funciones":[{"Hora":"15:32"},{"Hora":"20:18"},{"Hora":"11:14"},{"Hora":"9:33"},{"Hora":"17:51"}]},{"Id":2582576,"Funciones":[{"Hora":"14:11"},{"Hora":"12:23"},{"Hora":"9:01"},{"Hora":"12:43"},{"Hora":"8:02"},{"Hora":"18:39"},{"Hora":"19:09"},{"Hora":"18:30"}]},{"Id":5052448,"Funciones":[{"Hora":"7:06"},{"Hora":"10:53"},{"Hora":"8:57"},{"Hora":"12:58"},{"Hora":"15:26"},{"Hora":"11:24"},{"Hora":"20:49"},{"Hora":"19:33"},{"Hora":"10:47"},{"Hora":"12:04"}]},{"Id":4849438,"Funciones":[{"Hora":"8:50"},{"Hora":"9:25"},{"Hora":"15:18"},{"Hora":"16:19"},{"Hora":"14:50"},{"Hora":"8:45"},{"Hora":"15:04"}]}]},
{"Teatro":"Royal Films Altavista","Pelicula":[{"Id":1691916,"Funciones":[{"Hora":"13:50"},{"Hora":"9:31"},{"Hora":"17:53"},{"Hora":"14:55"},{"Hora":"12:20"}]},{"Id":2763304,"Funciones":[{"Hora":"18:02"},{"Hora":"13:50"},{"Hora":"17:03"},{"Hora":"18:18"},{"Hora":"18:09"},{"Hora":"16:49"},{"Hora":"19:22"},{"Hora":"11:28"},{"Hora":"20:11"},{"Hora":"17:28"}]},{"Id":3462710,"Funciones":[{"Hora":"9:50"},{"Hora":"20:18"},{"Hora":"17:01"},{"Hora":"7:05"},{"Hora":"12:16"}]},{"Id":5442430,"Funciones":[{"Hora":"19:27"},{"Hora":"18:02"},{"Hora":"13:52"},{"Hora":"19:06"},{"Hora":"10:38"},{"Hora":"10:27"},{"Hora":"15:23"}]},{"Id":2771200,"Funciones":[{"Hora":"9:56"},{"Hora":"14:31"},{"Hora":"8:24"},{"Hora":"17:44"},{"Hora":"18:25"},{"Hora":"12:47"}]},{"Id":3315342,"Funciones":[{"Hora":"15:58"},{"Hora":"14:52"},{"Hora":"11:16"},{"Hora":"16:30"},{"Hora":"17:49"},{"Hora":"7:52"},{"Hora":"11:52"},{"Hora":"18:23"},{"Hora":"8:11"},{"Hora":"19:31"}]},{"Id":2582576,"Funciones":[{"Hora":"18:17"},{"Hora":"17:25"},{"Hora":"18:20"},{"Hora":"17:48"},{"Hora":"11:06"},{"Hora":"7:06"}]},{"Id":3405236,"Funciones":[{"Hora":"20:18"},{"Hora":"11:30"},{"Hora":"20:42"},{"Hora":"17:43"},{"Hora":"20:38"},{"Hora":"18:04"},{"Hora":"19:42"}]},{"Id":4630562,"Funciones":[{"Hora":"12:20"},{"Hora":"15:32"},{"Hora":"8:29"},{"Hora":"17:09"},{"Hora":"7:11"},{"Hora":"7:15"}]},{"Id":4481414,"Funciones":[{"Hora":"12:50"},{"Hora":"20:46"},{"Hora":"20:56"},{"Hora":"8:18"},{"Hora":"7:05"},{"Hora":"16:18"},{"Hora":"20:37"},{"Hora":"18:02"},{"Hora":"10:33"},{"Hora":"8:08"}]}]},
{"Teatro":"Royal Films Eco Plaza","Pelicula":[{"Id":4465564,"Funciones":[{"Hora":"11:09"},{"Hora":"17:49"},{"Hora":"8:45"},{"Hora":"16:28"},{"Hora":"13:11"},{"Hora":"12:55"},{"Hora":"17:23"},{"Hora":"17:35"},{"Hora":"8:10"}]},{"Id":1691916,"Funciones":[{"Hora":"10:05"},{"Hora":"13:06"},{"Hora":"9:22"},{"Hora":"9:44"},{"Hora":"11:37"},{"Hora":"14:37"}]},{"Id":3717490,"Funciones":[{"Hora":"10:07"},{"Hora":"13:39"},{"Hora":"7:06"},{"Hora":"14:55"},{"Hora":"8:25"},{"Hora":"16:37"}]},{"Id":3731562,"Funciones":[{"Hora":"17:53"},{"Hora":"20:20"},{"Hora":"14:16"},{"Hora":"13:42"},{"Hora":"9:34"}]},{"Id":3405236,"Funciones":[{"Hora":"14:09"},{"Hora":"18:40"},{"Hora":"13:14"},{"Hora":"17:24"},{"Hora":"10:24"},{"Hora":"20:37"},{"Hora":"15:29"},{"Hora":"17:28"},{"Hora":"13:52"},{"Hora":"10:19"}]},{"Id":3171832,"Funciones":[{"Hora":"18:43"},{"Hora":"10:30"},{"Hora":"20:33"},{"Hora":"15:20"},{"Hora":"9:13"},{"Hora":"15:26"},{"Hora":"8:39"},{"Hora":"14:44"},{"Hora":"9:02"},{"Hora":"12:30"}]},{"Id":3717490,"Funciones":[{"Hora":"9:26"},{"Hora":"13:01"},{"Hora":"13:22"},{"Hora":"17:27"},{"Hora":"12:10"},{"Hora":"8:38"},{"Hora":"14:23"},{"Hora":"20:57"}]}]},
{"Teatro":"Royal Films San Martín","Pelicula":[{"Id":498381,"Funciones":[{"Hora":"7:50"},{"Hora":"17:14"},{"Hora":"19:31"},{"Hora":"19:46"},{"Hora":"9:17"},{"Hora":"8:50"}]},{"Id":1730768,"Funciones":[{"Hora":"15:32"},{"Hora":"14:53"},{"Hora":"7:14"},{"Hora":"16:04"},{"Hora":"16:39"},{"Hora":"15:02"},{"Hora":"8:45"},{"Hora":"16:47"},{"Hora":"17:17"}]},{"Id":2568862,"Funciones":[{"Hora":"12:55"},{"Hora":"12:04"},{"Hora":"18:44"},{"Hora":"12:03"},{"Hora":"20:40"}]},{"Id":3462710,"Funciones":[{"Hora":"9:59"},{"Hora":"10:03"},{"Hora":"9:05"},{"Hora":"12:42"},{"Hora":"17:20"},{"Hora":"15:19"}]},{"Id":3405236,"Funciones":[{"Hora":"16:26"},{"Hora":"19:50"},{"Hora":"7:22"},{"Hora":"13:00"},{"Hora":"16:21"},{"Hora":"12:40"},{"Hora":"9:12"},{"Hora":"9:26"},{"Hora":"11:13"}]},{"Id":1753383,"Funciones":[{"Hora":"13:46"},{"Hora":"17:28"},{"Hora":"11:43"},{"Hora":"17:07"},{"Hora":"16:30"},{"Hora":"15:53"},{"Hora":"8:36"},{"Hora":"13:45"},{"Hora":"19:29"}]}]}]